# Blender v2.63 (sub 0) OBJ File: ''
# www.blender.org
mtllib dc nObs.mtl
o Sphere.001_2sphere
v 1.088874 0.349228 -2.128721
v 0.904180 0.283649 -2.124594
v 0.735659 0.183498 -2.124939
v 0.589789 0.052623 -2.129741
v 0.472174 -0.103946 -2.138816
v 0.387335 -0.280192 -2.151815
v 0.338531 -0.469342 -2.168240
v 0.327639 -0.664128 -2.187457
v 0.355076 -0.857064 -2.208730
v 0.419789 -1.040734 -2.231240
v 0.519291 -1.208082 -2.254122
v 0.649757 -1.352676 -2.276498
v 0.806174 -1.468959 -2.297507
v 0.982531 -1.552463 -2.316342
v 1.172051 -1.599978 -2.332279
v 1.090400 0.353262 -2.166721
v 0.907174 0.291561 -2.199135
v 0.740006 0.194985 -2.233155
v 0.595321 0.067243 -2.267474
v 0.478679 -0.086755 -2.300773
v 0.394563 -0.261091 -2.331772
v 0.346205 -0.449064 -2.359281
v 0.335462 -0.643453 -2.382241
v 0.362750 -0.836785 -2.399771
v 0.427017 -1.021633 -2.411197
v 0.525796 -1.190891 -2.416080
v 0.655289 -1.338056 -2.414231
v 0.810520 -1.457473 -2.405723
v 0.985525 -1.544551 -2.390882
v 1.173577 -1.595944 -2.370279
v 1.099345 0.357501 -2.203662
v 0.924721 0.299878 -2.271598
v 0.765480 0.207058 -2.338354
v 0.627744 0.082609 -2.401367
v 0.516804 -0.068686 -2.458215
v 0.436925 -0.241014 -2.506712
v 0.391176 -0.427751 -2.544996
v 0.381315 -0.621722 -2.571595
v 0.407721 -0.815472 -2.585486
v 0.469380 -1.001556 -2.586137
v 0.563921 -1.172823 -2.573521
v 0.687712 -1.322690 -2.548125
v 0.835995 -1.445400 -2.510922
v 1.003072 -1.536235 -2.463345
v 1.182523 -1.591705 -2.407220
v 1.115366 0.361784 -2.238124
v 0.956146 0.308278 -2.339197
v 0.811104 0.219253 -2.436494
v 0.685811 0.098131 -2.526275
v 0.585085 -0.050434 -2.605091
v 0.512794 -0.220733 -2.669912
v 0.471718 -0.406221 -2.718248
v 0.463435 -0.599770 -2.748241
v 0.488263 -0.793942 -2.758738
v 0.545248 -0.981275 -2.749337
v 0.632201 -1.154571 -2.720397
v 0.745779 -1.307168 -2.673032
v 0.881618 -1.433204 -2.609062
v 1.034498 -1.527834 -2.530945
v 1.198544 -1.587422 -2.441682
v 1.137846 0.365945 -2.268783
v 1.000244 0.316440 -2.399336
v 0.875123 0.231103 -2.523802
v 0.767292 0.113213 -2.637398
v 0.680896 -0.032700 -2.735757
v 0.619254 -0.201028 -2.815100
v 0.584735 -0.385302 -2.872379
v 0.578666 -0.578441 -2.905392
v 0.601280 -0.773023 -2.912869
v 0.651708 -0.961570 -2.894525
v 0.728012 -1.136836 -2.851063
v 0.827260 -1.292086 -2.784155
v 0.945637 -1.421354 -2.696370
v 1.078595 -1.519672 -2.591084
v 1.221024 -1.583261 -2.472341
v 1.165923 0.369824 -2.294460
v 1.055317 0.324050 -2.449703
v 0.955077 0.242151 -2.596924
v 0.869055 0.127274 -2.730464
v 0.800556 -0.016165 -2.845191
v 0.752213 -0.182656 -2.936698
v 0.725884 -0.365798 -3.001466
v 0.722580 -0.558555 -3.037008
v 0.742429 -0.753519 -3.041956
v 0.784667 -0.943198 -3.016122
v 0.847672 -1.120302 -2.960498
v 0.929022 -1.278025 -2.877221
v 1.025592 -1.410306 -2.769492
v 1.133669 -1.512062 -2.641451
v 1.249100 -1.579382 -2.498018
v 1.198516 0.373274 -2.314169
v 1.119251 0.330816 -2.488363
v 1.047894 0.251973 -2.653049
v 0.987189 0.139775 -2.801898
v 0.939467 -0.001466 -2.929189
v 0.906562 -0.166322 -3.030031
v 0.889740 -0.348459 -3.100548
v 0.889647 -0.540876 -3.138031
v 0.906285 -0.736180 -3.141038
v 0.939016 -0.926865 -3.109456
v 0.986583 -1.105602 -3.044496
v 1.047156 -1.265524 -2.948655
v 1.118409 -1.400484 -2.825618
v 1.197602 -1.505296 -2.680111
v 1.281693 -1.575933 -2.517727
v 1.234373 0.376159 -2.327152
v 1.189587 0.336477 -2.513830
v 1.150007 0.260192 -2.690022
v 1.117154 0.150236 -2.848955
v 1.092290 0.010834 -2.984522
v 1.076370 -0.152655 -3.091514
v 1.070007 -0.333950 -3.165817
v 1.073445 -0.526083 -3.204579
v 1.086552 -0.721671 -3.206308
v 1.108824 -0.913198 -3.170938
v 1.139406 -1.093302 -3.099828
v 1.177122 -1.255064 -2.995712
v 1.220522 -1.392266 -2.862590
v 1.267939 -1.499635 -2.705578
v 1.317551 -1.573047 -2.530710
v 1.272117 0.378371 -2.332910
v 1.263624 0.340816 -2.525126
v 1.257492 0.266491 -2.706420
v 1.253956 0.158253 -2.869826
v 1.253152 0.020261 -3.009063
v 1.255111 -0.142180 -3.118783
v 1.259758 -0.322830 -3.194766
v 1.266913 -0.514745 -3.234095
v 1.276302 -0.710551 -3.235256
v 1.287565 -0.902723 -3.198207
v 1.300268 -1.083875 -3.124370
v 1.313924 -1.247046 -3.016583
v 1.328007 -1.385967 -2.878988
v 1.341976 -1.495296 -2.716873
v 1.355294 -1.570835 -2.536468
v 1.310297 0.379824 -2.331222
v 1.338516 0.343666 -2.521815
v 1.366218 0.270628 -2.701614
v 1.392338 0.163519 -2.863708
v 1.415872 0.026454 -3.001870
v 1.435916 -0.135300 -3.110790
v 1.451699 -0.315526 -3.186281
v 1.462615 -0.507298 -3.225444
v 1.468244 -0.703247 -3.226772
v 1.468370 -0.895842 -3.190215
v 1.462988 -1.077683 -3.117177
v 1.452306 -1.241780 -3.010466
v 1.436733 -1.381829 -2.874182
v 1.416868 -1.492446 -2.713562
v 1.393474 -1.569382 -2.534780
v 1.347445 0.380463 -2.322153
v 1.411385 0.344917 -2.504026
v 1.472007 0.272446 -2.675788
v 1.526982 0.165832 -2.830839
v 1.574196 0.029174 -2.963219
v 1.611836 -0.132278 -3.067843
v 1.638455 -0.312317 -3.140690
v 1.653029 -0.504027 -3.178959
v 1.655000 -0.700038 -3.181180
v 1.644290 -0.892820 -3.147268
v 1.621313 -1.074963 -3.078526
v 1.586950 -1.239467 -2.977596
v 1.542522 -1.380012 -2.848356
v 1.489736 -1.491195 -2.695773
v 1.430622 -1.568744 -2.525711
v 1.382134 0.380261 -2.306052
v 1.479430 0.344523 -2.472442
v 1.570794 0.271873 -2.629935
v 1.652713 0.165103 -2.772479
v 1.722041 0.028316 -2.894596
v 1.776112 -0.133231 -2.991593
v 1.812849 -0.313329 -3.059742
v 1.830840 -0.505058 -3.096426
v 1.829394 -0.701050 -3.100233
v 1.808566 -0.893773 -3.071018
v 1.769157 -1.075820 -3.009902
v 1.712681 -1.240197 -2.919236
v 1.641308 -1.380585 -2.802503
v 1.557782 -1.491589 -2.664189
v 1.465311 -1.568945 -2.509610
v 1.413031 0.379228 -2.283537
v 1.540037 0.342497 -2.428277
v 1.658781 0.268931 -2.565817
v 1.764700 0.161359 -2.690872
v 1.853723 0.023914 -2.798637
v 1.922430 -0.138122 -2.884969
v 1.968179 -0.318521 -2.946551
v 1.989214 -0.510352 -2.981017
v 1.984725 -0.706242 -2.987041
v 1.954884 -0.898664 -2.964393
v 1.900840 -1.080222 -2.913943
v 1.824668 -1.243940 -2.837630
v 1.729296 -1.383526 -2.738385
v 1.618388 -1.493615 -2.620024
v 1.496208 -1.569978 -2.487095
v 1.438949 0.377404 -2.255473
v 1.590877 0.338917 -2.373228
v 1.732589 0.263735 -2.485898
v 1.858639 0.154745 -2.589155
v 1.964184 0.016137 -2.679030
v 2.045167 -0.146763 -2.752069
v 2.098477 -0.327695 -2.805465
v 2.122064 -0.519706 -2.837167
v 2.115022 -0.715416 -2.845955
v 2.077622 -0.907305 -2.831493
v 2.011300 -1.087999 -2.794336
v 1.918607 -1.250554 -2.735912
v 1.803103 -1.388722 -2.658466
v 1.669228 -1.497195 -2.564975
v 1.522126 -1.571802 -2.459031
v 1.458891 0.374857 -2.222939
v 1.629995 0.333922 -2.309410
v 1.789380 0.256483 -2.393250
v 1.930920 0.145515 -2.471236
v 2.049178 0.005284 -2.540371
v 2.139607 -0.158823 -2.598000
v 2.198734 -0.340498 -2.641906
v 2.224285 -0.532759 -2.670403
v 2.215279 -0.728219 -2.682396
v 2.172061 -0.919365 -2.677424
v 2.096294 -1.098853 -2.655678
v 1.990888 -1.259784 -2.617993
v 1.859894 -1.395974 -2.565818
v 1.708346 -1.502190 -2.501158
v 1.542068 -1.574349 -2.426497
v 1.472092 0.371687 -2.187185
v 1.655889 0.327703 -2.239277
v 1.826972 0.247454 -2.291432
v 1.978766 0.134024 -2.341646
v 2.105438 -0.008229 -2.387990
v 2.202121 -0.173837 -2.428683
v 2.265097 -0.356437 -2.462160
v 2.291948 -0.549010 -2.487136
v 2.281642 -0.744158 -2.502650
v 2.234575 -0.934379 -2.508107
v 2.152554 -1.112365 -2.503296
v 2.038733 -1.271276 -2.488403
v 1.897486 -1.405003 -2.464000
v 1.734240 -1.508409 -2.431024
v 1.555269 -1.577520 -2.390743
v 1.478043 0.368014 -2.149586
v 1.667563 0.320499 -2.165522
v 1.843920 0.236995 -2.184357
v 2.000337 0.120712 -2.205366
v 2.130803 -0.023882 -2.227742
v 2.230305 -0.191229 -2.250624
v 2.295017 -0.374900 -2.273134
v 2.322455 -0.567836 -2.294407
v 2.311562 -0.762621 -2.313625
v 2.262759 -0.951772 -2.330049
v 2.177919 -1.128018 -2.343048
v 2.060305 -1.284587 -2.352123
v 1.914434 -1.415462 -2.356925
v 1.745914 -1.515613 -2.357270
v 1.561220 -1.581192 -2.353144
v 1.476517 0.363980 -2.111585
v 1.664569 0.312587 -2.090982
v 1.839574 0.225509 -2.076141
v 1.994805 0.106093 -2.067633
v 2.124298 -0.041072 -2.065785
v 2.223077 -0.210331 -2.070668
v 2.287344 -0.395178 -2.082093
v 2.314631 -0.588511 -2.099623
v 2.303889 -0.782899 -2.122584
v 2.255531 -0.970873 -2.150092
v 2.171414 -1.145209 -2.181091
v 2.054773 -1.299207 -2.214390
v 1.910088 -1.426949 -2.248709
v 1.742920 -1.523525 -2.282729
v 1.559694 -1.585226 -2.315143
v 1.467571 0.359741 -2.074644
v 1.647022 0.304271 -2.018519
v 1.814099 0.213435 -1.970942
v 1.962382 0.090726 -1.933740
v 2.086173 -0.059141 -1.908343
v 2.180714 -0.230408 -1.895728
v 2.242373 -0.416492 -1.896378
v 2.268778 -0.610242 -1.910270
v 2.258918 -0.804213 -1.936869
v 2.213169 -0.990950 -1.975152
v 2.133289 -1.163278 -2.023650
v 2.022350 -1.314573 -2.080497
v 1.884614 -1.439022 -2.143510
v 1.725373 -1.531842 -2.210267
v 1.550749 -1.589465 -2.278202
v 1.451551 0.355458 -2.040182
v 1.615596 0.295870 -1.950920
v 1.768476 0.201240 -1.872802
v 1.904315 0.075204 -1.808832
v 2.017893 -0.077393 -1.761467
v 2.104846 -0.250688 -1.732528
v 2.161830 -0.438022 -1.723126
v 2.186659 -0.632194 -1.733624
v 2.178376 -0.825743 -1.763616
v 2.137300 -1.011231 -1.811952
v 2.065009 -1.181530 -1.876774
v 1.964283 -1.330095 -1.955590
v 1.838990 -1.451217 -2.045371
v 1.693948 -1.540242 -2.142668
v 1.534728 -1.593748 -2.243740
v 1.429070 0.351297 -2.009523
v 1.571499 0.287708 -1.890781
v 1.704457 0.189390 -1.785494
v 1.822834 0.060123 -1.697710
v 1.922082 -0.095127 -1.630801
v 1.998386 -0.270394 -1.587340
v 2.048814 -0.458940 -1.568995
v 2.071428 -0.653522 -1.576473
v 2.065359 -0.846662 -1.609485
v 2.030840 -1.030936 -1.666764
v 1.969198 -1.199264 -1.746108
v 1.882802 -1.345177 -1.844467
v 1.774971 -1.463067 -1.958063
v 1.649850 -1.548404 -2.082529
v 1.512248 -1.597909 -2.213082
v 1.400994 0.347418 -1.983846
v 1.516426 0.280098 -1.840414
v 1.624503 0.178342 -1.712372
v 1.721072 0.046061 -1.604643
v 1.802422 -0.111662 -1.521367
v 1.865427 -0.288766 -1.465742
v 1.907665 -0.478444 -1.439908
v 1.927514 -0.673408 -1.444857
v 1.924210 -0.866165 -1.480399
v 1.897881 -1.049308 -1.545167
v 1.849538 -1.215798 -1.636673
v 1.781039 -1.359238 -1.751401
v 1.695017 -1.474115 -1.884941
v 1.594777 -1.556014 -2.032161
v 1.484171 -1.601788 -2.187405
v 1.367451 -1.609679 -2.344705
v 1.368401 0.343969 -1.964138
v 1.452492 0.273332 -1.801754
v 1.531685 0.168520 -1.656247
v 1.602938 0.033560 -1.533209
v 1.663511 -0.126362 -1.437369
v 1.711077 -0.305099 -1.372409
v 1.743809 -0.495784 -1.340826
v 1.760447 -0.691087 -1.343834
v 1.760354 -0.883505 -1.381317
v 1.743532 -1.065642 -1.451833
v 1.710627 -1.230498 -1.552675
v 1.662905 -1.371739 -1.679967
v 1.602200 -1.483937 -1.828815
v 1.530843 -1.562780 -1.993501
v 1.451578 -1.605237 -2.167696
v 1.332543 0.341083 -1.951155
v 1.382155 0.267671 -1.776287
v 1.429572 0.160302 -1.619275
v 1.472973 0.023100 -1.486153
v 1.510688 -0.138662 -1.382036
v 1.541270 -0.318766 -1.310927
v 1.563542 -0.510292 -1.275557
v 1.576649 -0.705880 -1.277286
v 1.580087 -0.898013 -1.316047
v 1.573724 -1.079308 -1.390351
v 1.557804 -1.242798 -1.497343
v 1.532940 -1.382199 -1.632910
v 1.500087 -1.492155 -1.791843
v 1.460507 -1.568441 -1.968035
v 1.415721 -1.608123 -2.154713
v 1.294800 0.338871 -1.945397
v 1.308118 0.263333 -1.764992
v 1.322088 0.154003 -1.602877
v 1.336170 0.015083 -1.465282
v 1.349826 -0.148089 -1.357495
v 1.362529 -0.329241 -1.283658
v 1.373792 -0.521413 -1.246608
v 1.383181 -0.717218 -1.247770
v 1.390337 -0.909134 -1.287099
v 1.394983 -1.089783 -1.363082
v 1.396942 -1.252225 -1.472801
v 1.396138 -1.390217 -1.612039
v 1.392602 -1.498455 -1.775445
v 1.386470 -1.572780 -1.956739
v 1.377977 -1.610335 -2.148955
v 1.256620 0.337418 -1.947084
v 1.233227 0.260482 -1.768302
v 1.213362 0.149865 -1.607683
v 1.197788 0.009816 -1.471399
v 1.187106 -0.154281 -1.364688
v 1.181724 -0.336122 -1.291650
v 1.181850 -0.528717 -1.255093
v 1.187480 -0.724666 -1.256421
v 1.198395 -0.916438 -1.295583
v 1.214178 -1.096664 -1.371074
v 1.234222 -1.258418 -1.479994
v 1.257756 -1.395483 -1.618156
v 1.283876 -1.502592 -1.780251
v 1.311578 -1.575630 -1.960050
v 1.339798 -1.611788 -2.150643
v 1.219472 0.336780 -1.956153
v 1.160358 0.259231 -1.786091
v 1.107573 0.148048 -1.633509
v 1.063145 0.007504 -1.504269
v 1.028782 -0.157001 -1.403339
v 1.005804 -0.339144 -1.334597
v 0.995094 -0.531925 -1.300685
v 0.997065 -0.727937 -1.302906
v 1.011639 -0.919646 -1.341175
v 1.038258 -1.099686 -1.414021
v 1.075898 -1.261137 -1.518645
v 1.123112 -1.397796 -1.651026
v 1.178087 -1.504410 -1.806077
v 1.238709 -1.576881 -1.977839
v 1.302650 -1.612426 -2.159712
v 1.184783 0.336981 -1.972255
v 1.092313 0.259625 -1.817675
v 1.008786 0.148621 -1.679361
v 0.937413 0.008233 -1.562629
v 0.880937 -0.156143 -1.471962
v 0.841528 -0.338191 -1.410847
v 0.820700 -0.530914 -1.381632
v 0.819254 -0.726905 -1.385439
v 0.837245 -0.918635 -1.422122
v 0.873982 -1.098733 -1.490272
v 0.928054 -1.260280 -1.587269
v 0.997381 -1.397066 -1.709386
v 1.079301 -1.503836 -1.851930
v 1.170664 -1.576487 -2.009423
v 1.267961 -1.612225 -2.175813
v 1.153886 0.338014 -1.994770
v 1.031706 0.261651 -1.861840
v 0.920799 0.151562 -1.743479
v 0.825427 0.011976 -1.644235
v 0.749255 -0.151742 -1.567922
v 0.695210 -0.333300 -1.517471
v 0.665370 -0.525721 -1.494824
v 0.660881 -0.721611 -1.500848
v 0.681915 -0.913442 -1.535314
v 0.727664 -1.093842 -1.596896
v 0.796371 -1.255878 -1.683228
v 0.885394 -1.393323 -1.790992
v 0.991313 -1.500895 -1.916048
v 1.110057 -1.574461 -2.053588
v 1.237063 -1.611192 -2.198328
v 1.282643 0.377715 -2.137159
v 1.127968 0.339839 -2.022834
v 0.980866 0.265231 -1.916889
v 0.846991 0.156758 -1.823398
v 0.731487 0.018590 -1.745952
v 0.638794 -0.143964 -1.687529
v 0.572473 -0.324658 -1.650372
v 0.535073 -0.516548 -1.635910
v 0.528031 -0.712258 -1.644699
v 0.551618 -0.904269 -1.676400
v 0.604927 -1.085201 -1.729796
v 0.685910 -1.248101 -1.802835
v 0.791455 -1.386709 -1.892710
v 0.917506 -1.495699 -1.995967
v 1.059218 -1.570881 -2.108637
v 1.211146 -1.609368 -2.226392
v 1.108026 0.342385 -2.055367
v 0.941748 0.270226 -1.980707
v 0.790200 0.164010 -1.916047
v 0.659206 0.027820 -1.863872
v 0.553801 -0.133111 -1.826187
v 0.478033 -0.312599 -1.804440
v 0.434816 -0.503745 -1.799468
v 0.425810 -0.699205 -1.811461
v 0.451361 -0.891466 -1.839959
v 0.510487 -1.073141 -1.883865
v 0.600917 -1.237247 -1.941493
v 0.719174 -1.377479 -2.010629
v 0.860715 -1.488447 -2.088615
v 1.020099 -1.565886 -2.172455
v 1.191203 -1.606821 -2.258926
v 1.094825 0.345556 -2.091121
v 0.915854 0.276445 -2.050840
v 0.752608 0.173039 -2.017865
v 0.611361 0.039312 -1.993461
v 0.497540 -0.119598 -1.978568
v 0.415520 -0.297584 -1.973758
v 0.368452 -0.487806 -1.979214
v 0.358146 -0.682953 -1.994729
v 0.384997 -0.875527 -2.019705
v 0.447974 -1.058127 -2.053182
v 0.544656 -1.223735 -2.093874
v 0.671328 -1.365988 -2.140218
v 0.823123 -1.479418 -2.190433
v 0.994206 -1.559667 -2.242588
v 1.178003 -1.603651 -2.294679
g Sphere.001_2sphere_
usemtl 
s off
f 27 28 13 12
f 21 22 7 6
f 28 29 14 13
f 22 23 8 7
f 2 1 16 17
f 29 30 15 14
f 23 24 9 8
f 17 18 3 2
f 24 25 10 9
f 18 19 4 3
f 25 26 11 10
f 19 20 5 4
f 26 27 12 11
f 20 21 6 5
f 39 40 25 24
f 33 34 19 18
f 40 41 26 25
f 34 35 20 19
f 41 42 27 26
f 35 36 21 20
f 42 43 28 27
f 36 37 22 21
f 43 44 29 28
f 37 38 23 22
f 31 32 17 16
f 44 45 30 29
f 38 39 24 23
f 32 33 18 17
f 58 59 44 43
f 52 53 38 37
f 46 47 32 31
f 59 60 45 44
f 53 54 39 38
f 47 48 33 32
f 54 55 40 39
f 48 49 34 33
f 55 56 41 40
f 49 50 35 34
f 56 57 42 41
f 50 51 36 35
f 57 58 43 42
f 51 52 37 36
f 64 65 50 49
f 71 72 57 56
f 65 66 51 50
f 72 73 58 57
f 66 67 52 51
f 73 74 59 58
f 67 68 53 52
f 61 62 47 46
f 74 75 60 59
f 68 69 54 53
f 62 63 48 47
f 69 70 55 54
f 63 64 49 48
f 70 71 56 55
f 83 84 69 68
f 77 78 63 62
f 84 85 70 69
f 78 79 64 63
f 85 86 71 70
f 79 80 65 64
f 86 87 72 71
f 80 81 66 65
f 87 88 73 72
f 81 82 67 66
f 88 89 74 73
f 82 83 68 67
f 76 77 62 61
f 89 90 75 74
f 102 103 88 87
f 96 97 82 81
f 103 104 89 88
f 97 98 83 82
f 91 92 77 76
f 104 105 90 89
f 98 99 84 83
f 92 93 78 77
f 99 100 85 84
f 93 94 79 78
f 100 101 86 85
f 94 95 80 79
f 101 102 87 86
f 95 96 81 80
f 115 116 101 100
f 109 110 95 94
f 116 117 102 101
f 110 111 96 95
f 117 118 103 102
f 111 112 97 96
f 118 119 104 103
f 112 113 98 97
f 106 107 92 91
f 119 120 105 104
f 113 114 99 98
f 107 108 93 92
f 114 115 100 99
f 108 109 94 93
f 134 135 120 119
f 128 129 114 113
f 122 123 108 107
f 129 130 115 114
f 123 124 109 108
f 130 131 116 115
f 124 125 110 109
f 131 132 117 116
f 125 126 111 110
f 132 133 118 117
f 126 127 112 111
f 133 134 119 118
f 127 128 113 112
f 121 122 107 106
f 147 148 133 132
f 141 142 127 126
f 148 149 134 133
f 142 143 128 127
f 136 137 122 121
f 149 150 135 134
f 143 144 129 128
f 137 138 123 122
f 144 145 130 129
f 138 139 124 123
f 145 146 131 130
f 139 140 125 124
f 146 147 132 131
f 140 141 126 125
f 160 161 146 145
f 154 155 140 139
f 161 162 147 146
f 155 156 141 140
f 162 163 148 147
f 156 157 142 141
f 163 164 149 148
f 157 158 143 142
f 151 152 137 136
f 164 165 150 149
f 158 159 144 143
f 152 153 138 137
f 159 160 145 144
f 153 154 139 138
f 179 180 165 164
f 173 174 159 158
f 167 168 153 152
f 174 175 160 159
f 168 169 154 153
f 175 176 161 160
f 169 170 155 154
f 176 177 162 161
f 170 171 156 155
f 177 178 163 162
f 171 172 157 156
f 178 179 164 163
f 172 173 158 157
f 166 167 152 151
f 192 193 178 177
f 186 187 172 171
f 193 194 179 178
f 187 188 173 172
f 181 182 167 166
f 194 195 180 179
f 188 189 174 173
f 182 183 168 167
f 189 190 175 174
f 183 184 169 168
f 190 191 176 175
f 184 185 170 169
f 191 192 177 176
f 185 186 171 170
f 198 199 184 183
f 205 206 191 190
f 199 200 185 184
f 206 207 192 191
f 200 201 186 185
f 207 208 193 192
f 201 202 187 186
f 208 209 194 193
f 202 203 188 187
f 196 197 182 181
f 209 210 195 194
f 203 204 189 188
f 197 198 183 182
f 204 205 190 189
f 217 218 203 202
f 211 212 197 196
f 224 225 210 209
f 218 219 204 203
f 212 213 198 197
f 219 220 205 204
f 213 214 199 198
f 220 221 206 205
f 214 215 200 199
f 221 222 207 206
f 215 216 201 200
f 222 223 208 207
f 216 217 202 201
f 223 224 209 208
f 236 237 222 221
f 230 231 216 215
f 237 238 223 222
f 231 232 217 216
f 238 239 224 223
f 232 233 218 217
f 226 227 212 211
f 239 240 225 224
f 233 234 219 218
f 227 228 213 212
f 234 235 220 219
f 228 229 214 213
f 235 236 221 220
f 229 230 215 214
f 249 250 235 234
f 243 244 229 228
f 250 251 236 235
f 244 245 230 229
f 251 252 237 236
f 245 246 231 230
f 252 253 238 237
f 246 247 232 231
f 253 254 239 238
f 247 248 233 232
f 241 242 227 226
f 254 255 240 239
f 248 249 234 233
f 242 243 228 227
f 268 269 254 253
f 262 263 248 247
f 256 257 242 241
f 269 270 255 254
f 263 264 249 248
f 257 258 243 242
f 264 265 250 249
f 258 259 244 243
f 265 266 251 250
f 259 260 245 244
f 266 267 252 251
f 260 261 246 245
f 267 268 253 252
f 261 262 247 246
f 281 282 267 266
f 275 276 261 260
f 282 283 268 267
f 276 277 262 261
f 283 284 269 268
f 277 278 263 262
f 271 272 257 256
f 284 285 270 269
f 278 279 264 263
f 272 273 258 257
f 279 280 265 264
f 273 274 259 258
f 280 281 266 265
f 274 275 260 259
f 294 295 280 279
f 288 289 274 273
f 295 296 281 280
f 289 290 275 274
f 296 297 282 281
f 290 291 276 275
f 297 298 283 282
f 291 292 277 276
f 298 299 284 283
f 292 293 278 277
f 286 287 272 271
f 299 300 285 284
f 293 294 279 278
f 287 288 273 272
f 313 314 299 298
f 307 308 293 292
f 301 302 287 286
f 314 315 300 299
f 308 309 294 293
f 302 303 288 287
f 309 310 295 294
f 303 304 289 288
f 310 311 296 295
f 304 305 290 289
f 311 312 297 296
f 305 306 291 290
f 312 313 298 297
f 306 307 292 291
f 326 327 312 311
f 320 321 306 305
f 327 328 313 312
f 321 322 307 306
f 328 329 314 313
f 322 323 308 307
f 316 317 302 301
f 329 330 315 314
f 323 324 309 308
f 317 318 303 302
f 324 325 310 309
f 318 319 304 303
f 325 326 311 310
f 319 320 305 304
f 333 334 318 317
f 340 341 325 324
f 334 335 319 318
f 341 342 326 325
f 335 336 320 319
f 342 343 327 326
f 336 337 321 320
f 343 344 328 327
f 337 338 322 321
f 344 345 329 328
f 338 339 323 322
f 332 333 317 316
f 345 346 330 329
f 339 340 324 323
f 352 353 338 337
f 359 360 345 344
f 353 354 339 338
f 347 348 333 332
f 360 361 346 345
f 354 355 340 339
f 348 349 334 333
f 355 356 341 340
f 349 350 335 334
f 356 357 342 341
f 350 351 336 335
f 357 358 343 342
f 351 352 337 336
f 358 359 344 343
f 371 372 357 356
f 365 366 351 350
f 372 373 358 357
f 366 367 352 351
f 373 374 359 358
f 367 368 353 352
f 374 375 360 359
f 368 369 354 353
f 362 363 348 347
f 375 376 361 360
f 369 370 355 354
f 363 364 349 348
f 370 371 356 355
f 364 365 350 349
f 390 391 376 375
f 384 385 370 369
f 378 379 364 363
f 385 386 371 370
f 379 380 365 364
f 386 387 372 371
f 380 381 366 365
f 387 388 373 372
f 381 382 367 366
f 388 389 374 373
f 382 383 368 367
f 389 390 375 374
f 383 384 369 368
f 377 378 363 362
f 403 404 389 388
f 397 398 383 382
f 404 405 390 389
f 398 399 384 383
f 392 393 378 377
f 405 406 391 390
f 399 400 385 384
f 393 394 379 378
f 400 401 386 385
f 394 395 380 379
f 401 402 387 386
f 395 396 381 380
f 402 403 388 387
f 396 397 382 381
f 416 417 402 401
f 410 411 396 395
f 417 418 403 402
f 411 412 397 396
f 418 419 404 403
f 412 413 398 397
f 419 420 405 404
f 413 414 399 398
f 407 408 393 392
f 420 421 406 405
f 414 415 400 399
f 408 409 394 393
f 415 416 401 400
f 409 410 395 394
f 435 436 421 420
f 429 430 415 414
f 423 424 409 408
f 430 431 416 415
f 424 425 410 409
f 431 432 417 416
f 425 426 411 410
f 432 433 418 417
f 426 427 412 411
f 433 434 419 418
f 427 428 413 412
f 434 435 420 419
f 428 429 414 413
f 422 423 408 407
f 449 450 434 433
f 443 444 428 427
f 450 451 435 434
f 444 445 429 428
f 438 439 423 422
f 451 452 436 435
f 445 446 430 429
f 439 440 424 423
f 446 447 431 430
f 440 441 425 424
f 447 448 432 431
f 441 442 426 425
f 448 449 433 432
f 442 443 427 426
f 462 463 448 447
f 456 457 442 441
f 463 464 449 448
f 457 458 443 442
f 464 465 450 449
f 458 459 444 443
f 465 466 451 450
f 459 460 445 444
f 453 454 439 438
f 466 467 452 451
f 460 461 446 445
f 454 455 440 439
f 461 462 447 446
f 455 456 441 440
f 468 469 454 453
f 481 482 467 466
f 475 476 461 460
f 469 470 455 454
f 476 477 462 461
f 470 471 456 455
f 477 478 463 462
f 471 472 457 456
f 478 479 464 463
f 472 473 458 457
f 479 480 465 464
f 473 474 459 458
f 480 481 466 465
f 474 475 460 459
f 16 1 437
f 30 331 15
f 45 331 30
f 437 31 16
f 437 46 31
f 60 331 45
f 437 61 46
f 75 331 60
f 90 331 75
f 437 76 61
f 437 91 76
f 105 331 90
f 437 106 91
f 120 331 105
f 135 331 120
f 437 121 106
f 437 136 121
f 150 331 135
f 437 151 136
f 165 331 150
f 180 331 165
f 437 166 151
f 437 181 166
f 195 331 180
f 437 196 181
f 210 331 195
f 225 331 210
f 437 211 196
f 437 226 211
f 240 331 225
f 255 331 240
f 437 241 226
f 270 331 255
f 437 256 241
f 437 271 256
f 285 331 270
f 300 331 285
f 437 286 271
f 315 331 300
f 437 301 286
f 437 316 301
f 330 331 315
f 346 331 330
f 437 332 316
f 437 347 332
f 361 331 346
f 437 362 347
f 376 331 361
f 391 331 376
f 437 377 362
f 437 392 377
f 406 331 391
f 437 407 392
f 421 331 406
f 436 331 421
f 437 422 407
f 437 438 422
f 452 331 436
f 437 453 438
f 467 331 452
f 482 331 467
f 437 468 453
f 5 6 473 472
f 12 13 480 479
f 6 7 474 473
f 437 1 468
f 13 14 481 480
f 7 8 475 474
f 1 2 469 468
f 14 15 482 481
f 8 9 476 475
f 2 3 470 469
f 15 331 482
f 9 10 477 476
f 3 4 471 470
f 10 11 478 477
f 4 5 472 471
f 11 12 479 478
o Sphere_1sphere
v -1.311017 1.861381 1.440911
v -1.495711 1.795802 1.445037
v -1.664231 1.695650 1.444693
v -1.810102 1.564775 1.439891
v -1.927716 1.408206 1.430815
v -2.012556 1.231960 1.417816
v -2.061359 1.042810 1.401392
v -2.072252 0.848024 1.382174
v -2.044814 0.655089 1.360902
v -1.980102 0.471418 1.338392
v -1.880600 0.304070 1.315509
v -1.750134 0.159476 1.293133
v -1.593717 0.043193 1.272124
v -1.417360 -0.040311 1.253290
v -1.227840 -0.087826 1.237353
v -1.309491 1.865414 1.402910
v -1.492717 1.803714 1.370497
v -1.659885 1.707137 1.336476
v -1.804570 1.579395 1.302158
v -1.921211 1.425397 1.268859
v -2.005328 1.251062 1.237859
v -2.053686 1.063088 1.210351
v -2.064428 0.868699 1.187390
v -2.037141 0.675367 1.169861
v -1.972874 0.490519 1.158435
v -1.874095 0.321261 1.153552
v -1.744602 0.174096 1.155400
v -1.589370 0.054680 1.163908
v -1.414366 -0.032398 1.178749
v -1.226313 -0.083792 1.199352
v -1.300546 1.869654 1.365969
v -1.475170 1.812030 1.298034
v -1.634410 1.719210 1.231277
v -1.772147 1.594761 1.168264
v -1.883086 1.443466 1.111417
v -1.962965 1.271139 1.062919
v -2.008715 1.084401 1.024636
v -2.018576 0.890431 0.998037
v -1.992170 0.696680 0.984145
v -1.930511 0.510596 0.983495
v -1.835970 0.339330 0.996110
v -1.712179 0.189462 1.021507
v -1.563896 0.066753 1.058709
v -1.396819 -0.024082 1.106287
v -1.217368 -0.079553 1.162411
v -1.284525 1.873936 1.331507
v -1.443744 1.820430 1.230434
v -1.588787 1.731406 1.133138
v -1.714079 1.610283 1.043356
v -1.814806 1.461718 0.964541
v -1.887097 1.291419 0.899719
v -1.928173 1.105931 0.851384
v -1.936456 0.912382 0.821391
v -1.911628 0.718210 0.810893
v -1.854642 0.530877 0.820295
v -1.767690 0.357582 0.849234
v -1.654112 0.204984 0.896599
v -1.518273 0.078948 0.960570
v -1.365393 -0.015682 1.038687
v -1.201347 -0.075270 1.127949
v -1.262044 1.878097 1.300849
v -1.399647 1.828593 1.170295
v -1.524768 1.743255 1.045830
v -1.632599 1.625365 0.932234
v -1.718995 1.479452 0.833875
v -1.780637 1.311124 0.754531
v -1.815156 1.126850 0.697252
v -1.821225 0.933711 0.664240
v -1.798611 0.739129 0.656762
v -1.748183 0.550582 0.675107
v -1.671879 0.375316 0.718568
v -1.572631 0.220066 0.785477
v -1.454254 0.090798 0.873261
v -1.321296 -0.007520 0.978548
v -1.178867 -0.071109 1.097291
v -1.233968 1.881977 1.275172
v -1.344574 1.836203 1.119928
v -1.444814 1.754303 0.972708
v -1.530836 1.639427 0.839168
v -1.599335 1.495987 0.724440
v -1.647678 1.329497 0.632934
v -1.674007 1.146354 0.568165
v -1.677311 0.953597 0.532624
v -1.657462 0.758633 0.527675
v -1.615224 0.568954 0.553509
v -1.552219 0.391850 0.609134
v -1.470868 0.234127 0.692410
v -1.374299 0.101846 0.800139
v -1.266222 0.000090 0.928181
v -1.150790 -0.067229 1.071614
v -1.201375 1.885426 1.255463
v -1.280640 1.842968 1.081268
v -1.351997 1.764125 0.916582
v -1.412702 1.651928 0.767733
v -1.460424 1.510686 0.640442
v -1.493328 1.345830 0.539601
v -1.510150 1.163693 0.469083
v -1.510244 0.971276 0.431601
v -1.493605 0.775972 0.428593
v -1.460874 0.585288 0.460176
v -1.413308 0.406550 0.525136
v -1.352735 0.246628 0.620976
v -1.281482 0.111668 0.744014
v -1.202289 0.006856 0.889521
v -1.118197 -0.063780 1.051905
v -1.165518 1.888312 1.242480
v -1.210303 1.848629 1.055801
v -1.249883 1.772344 0.879610
v -1.282737 1.662388 0.720677
v -1.307601 1.522986 0.585110
v -1.323521 1.359497 0.478118
v -1.329883 1.178202 0.403814
v -1.326446 0.986069 0.365053
v -1.313339 0.790481 0.363324
v -1.291066 0.598955 0.398694
v -1.260485 0.418850 0.469803
v -1.222769 0.257088 0.573919
v -1.179369 0.119887 0.707042
v -1.131952 0.012517 0.864054
v -1.082340 -0.060894 1.038922
v -1.127774 1.890524 1.236722
v -1.136266 1.852968 1.044506
v -1.142399 1.778643 0.863212
v -1.145935 1.670405 0.699806
v -1.146739 1.532414 0.560568
v -1.144780 1.369972 0.450849
v -1.140133 1.189322 0.374865
v -1.132978 0.997407 0.335537
v -1.123588 0.801601 0.334375
v -1.112326 0.609430 0.371425
v -1.099622 0.428277 0.445262
v -1.085967 0.265106 0.553049
v -1.071884 0.126186 0.690644
v -1.057915 0.016856 0.852759
v -1.044596 -0.058683 1.033164
v -1.089594 1.891977 1.238410
v -1.061375 1.855818 1.047817
v -1.033672 1.782781 0.868018
v -1.007553 1.675671 0.705923
v -0.984019 1.538606 0.567761
v -0.963975 1.376853 0.458841
v -0.948192 1.196627 0.383350
v -0.937276 1.004855 0.344188
v -0.931647 0.808906 0.342860
v -0.931521 0.616310 0.379417
v -0.936902 0.434470 0.452455
v -0.947585 0.270372 0.559166
v -0.963158 0.130323 0.695450
v -0.983023 0.019706 0.856069
v -1.006417 -0.057230 1.034852
v -1.052446 1.892615 1.247478
v -0.988506 1.857070 1.065606
v -0.927884 1.784598 0.893844
v -0.872909 1.677984 0.738793
v -0.825694 1.541326 0.606412
v -0.788054 1.379875 0.501788
v -0.761436 1.199835 0.428942
v -0.746861 1.008126 0.390673
v -0.744891 0.812114 0.388452
v -0.755600 0.619332 0.422364
v -0.778578 0.437189 0.491106
v -0.812941 0.272685 0.592036
v -0.857369 0.132141 0.721276
v -0.910154 0.020958 0.873858
v -0.969269 -0.056591 1.043920
v -1.017757 1.892414 1.263580
v -0.920461 1.856675 1.097190
v -0.829097 1.784025 0.939697
v -0.747178 1.677255 0.797153
v -0.677850 1.540468 0.675036
v -0.623779 1.378922 0.578039
v -0.587042 1.198823 0.509889
v -0.569050 1.007094 0.473206
v -0.570497 0.811102 0.469399
v -0.591325 0.618379 0.498614
v -0.630734 0.436332 0.559729
v -0.687210 0.271956 0.650395
v -0.758583 0.131568 0.767128
v -0.842109 0.020563 0.905442
v -0.934580 -0.056793 1.060022
v -0.986860 1.891381 1.286095
v -0.859854 1.854649 1.141355
v -0.741109 1.781084 1.003814
v -0.635191 1.673512 0.878759
v -0.546167 1.536066 0.770995
v -0.477461 1.374031 0.684663
v -0.431711 1.193631 0.623081
v -0.410677 1.001800 0.588615
v -0.415166 0.805910 0.582590
v -0.445006 0.613488 0.605238
v -0.499051 0.431930 0.655689
v -0.575223 0.268212 0.732002
v -0.670595 0.128626 0.831246
v -0.781502 0.018537 0.949607
v -0.903682 -0.057825 1.082537
v -0.960942 1.889556 1.314159
v -0.809014 1.851070 1.196404
v -0.667302 1.775887 1.083733
v -0.541252 1.666898 0.980477
v -0.435707 1.528289 0.890602
v -0.354723 1.365389 0.817563
v -0.301414 1.184457 0.764167
v -0.277827 0.992447 0.732465
v -0.284869 0.796736 0.723677
v -0.322269 0.604847 0.738138
v -0.388590 0.424153 0.775295
v -0.481284 0.261598 0.833719
v -0.596788 0.123430 0.911165
v -0.730663 0.014957 1.004657
v -0.877765 -0.059650 1.110601
v -0.941000 1.887009 1.346693
v -0.769896 1.846074 1.260221
v -0.610511 1.768635 1.176382
v -0.468970 1.657668 1.098396
v -0.350713 1.517436 1.029260
v -0.260284 1.353330 0.971632
v -0.201157 1.171655 0.927725
v -0.175606 0.979393 0.899228
v -0.184612 0.783934 0.887235
v -0.227829 0.592787 0.892207
v -0.303597 0.413299 0.913954
v -0.409003 0.252368 0.951639
v -0.539997 0.116178 1.003814
v -0.691545 0.009962 1.068474
v -0.857822 -0.062197 1.143135
v -0.927799 1.883839 1.382446
v -0.744002 1.839855 1.330355
v -0.572919 1.759606 1.278200
v -0.421125 1.646176 1.227986
v -0.294453 1.503923 1.181642
v -0.197770 1.338315 1.140949
v -0.134794 1.155715 1.107471
v -0.107942 0.963142 1.082496
v -0.118249 0.767994 1.066981
v -0.165316 0.577773 1.061524
v -0.247337 0.399787 1.066335
v -0.361157 0.240877 1.081228
v -0.502405 0.107149 1.105632
v -0.665651 0.003743 1.138607
v -0.844622 -0.065367 1.178888
v -0.921848 1.880166 1.420046
v -0.732328 1.832651 1.404109
v -0.555971 1.749147 1.385274
v -0.399554 1.632865 1.364265
v -0.269088 1.488271 1.341890
v -0.169586 1.320923 1.319007
v -0.104873 1.137252 1.296497
v -0.077436 0.944317 1.275224
v -0.088328 0.749531 1.256007
v -0.137132 0.560381 1.239583
v -0.221971 0.384134 1.226583
v -0.339586 0.227565 1.217508
v -0.485456 0.096690 1.212706
v -0.653976 -0.003461 1.212362
v -0.838670 -0.069040 1.216488
v -0.923374 1.876133 1.458046
v -0.735322 1.824739 1.478650
v -0.560317 1.737661 1.493490
v -0.405086 1.618245 1.501998
v -0.275593 1.471080 1.503847
v -0.176814 1.301821 1.498964
v -0.112547 1.116974 1.487538
v -0.085260 0.923641 1.470008
v -0.096002 0.729253 1.447048
v -0.144360 0.541279 1.419539
v -0.228476 0.366943 1.388540
v -0.345118 0.212946 1.355241
v -0.489803 0.085204 1.320922
v -0.656970 -0.011373 1.286902
v -0.840197 -0.073073 1.254488
v -0.932319 1.871893 1.494987
v -0.752869 1.816423 1.551112
v -0.585792 1.725588 1.598690
v -0.437509 1.602879 1.635892
v -0.313718 1.453011 1.661288
v -0.219176 1.281744 1.673904
v -0.157518 1.095660 1.673253
v -0.131112 0.901910 1.659362
v -0.140973 0.707939 1.632763
v -0.186722 0.521202 1.594479
v -0.266602 0.348875 1.545982
v -0.377541 0.197579 1.489134
v -0.515277 0.073131 1.426121
v -0.674517 -0.019689 1.359365
v -0.849142 -0.077313 1.291429
v -0.948340 1.867611 1.529449
v -0.784295 1.808022 1.618712
v -0.631415 1.713392 1.696829
v -0.495576 1.587357 1.760799
v -0.381998 1.434759 1.808164
v -0.295045 1.261464 1.837104
v -0.238060 1.074131 1.846505
v -0.213232 0.879959 1.836008
v -0.221515 0.686410 1.806015
v -0.262591 0.500921 1.757679
v -0.334882 0.330622 1.692858
v -0.435608 0.182057 1.614042
v -0.560901 0.060935 1.524261
v -0.705943 -0.028090 1.426964
v -0.865163 -0.081596 1.325891
v -0.970821 1.863450 1.560108
v -0.828392 1.799860 1.678851
v -0.695434 1.701542 1.784137
v -0.577057 1.572275 1.871922
v -0.477809 1.417025 1.938830
v -0.401505 1.241759 1.982292
v -0.351077 1.053212 2.000636
v -0.328463 0.858630 1.993159
v -0.334532 0.665491 1.960146
v -0.369051 0.481216 1.902868
v -0.430693 0.312888 1.823524
v -0.517089 0.166976 1.725164
v -0.624920 0.049085 1.611569
v -0.750040 -0.036252 1.487103
v -0.887643 -0.085757 1.356550
v -0.998897 1.859570 1.585785
v -0.883465 1.792250 1.729218
v -0.775388 1.690494 1.857259
v -0.678819 1.558213 1.964988
v -0.597469 1.400490 2.048265
v -0.534464 1.223387 2.103889
v -0.492226 1.033708 2.129723
v -0.472377 0.838744 2.124774
v -0.475681 0.645987 2.089233
v -0.502010 0.462844 2.024465
v -0.550353 0.296354 1.932958
v -0.618852 0.152914 1.818231
v -0.704874 0.038037 1.684691
v -0.805114 -0.043862 1.537470
v -0.915720 -0.089636 1.382227
v -1.032440 -0.097526 1.224926
v -1.031490 1.856121 1.605494
v -0.947399 1.785485 1.767878
v -0.868205 1.680672 1.913385
v -0.796953 1.545712 2.036422
v -0.736380 1.385791 2.132262
v -0.688813 1.207053 2.197222
v -0.656082 1.016369 2.228805
v -0.639443 0.821065 2.225797
v -0.639537 0.628647 2.188315
v -0.656359 0.446511 2.117798
v -0.689263 0.281654 2.016956
v -0.736985 0.140413 1.889665
v -0.797691 0.028215 1.740816
v -0.869047 -0.050627 1.576130
v -0.948313 -0.093085 1.401935
v -1.067347 1.853235 1.618477
v -1.017736 1.779824 1.793345
v -0.970318 1.672454 1.950357
v -0.926918 1.535252 2.083479
v -0.889203 1.373491 2.187595
v -0.858621 1.193386 2.258705
v -0.836349 1.001860 2.294075
v -0.823242 0.806272 2.292346
v -0.819804 0.614139 2.253584
v -0.826167 0.432844 2.179281
v -0.842086 0.269354 2.072289
v -0.866951 0.129953 1.936722
v -0.899804 0.019997 1.777789
v -0.939384 -0.056288 1.601597
v -0.984170 -0.095971 1.414918
v -1.105091 1.851023 1.624235
v -1.091772 1.775485 1.804640
v -1.077803 1.666155 1.966755
v -1.063720 1.527235 2.104350
v -1.050065 1.364064 2.212137
v -1.037362 1.182911 2.285974
v -1.026099 0.990740 2.323023
v -1.016710 0.794934 2.321861
v -1.009554 0.603019 2.282533
v -1.004908 0.422369 2.206550
v -1.002949 0.259927 2.096830
v -1.003753 0.121936 1.957592
v -1.007289 0.013698 1.794187
v -1.013421 -0.060627 1.612892
v -1.021914 -0.098183 1.420677
v -1.143270 1.849570 1.622547
v -1.166664 1.772635 1.801329
v -1.186529 1.662017 1.961949
v -1.202102 1.521969 2.098233
v -1.212785 1.357871 2.204944
v -1.218167 1.176031 2.277981
v -1.218040 0.983435 2.314538
v -1.212411 0.787486 2.313210
v -1.201495 0.595714 2.274048
v -1.185712 0.415488 2.198557
v -1.165669 0.253735 2.089637
v -1.142135 0.116669 1.951475
v -1.116015 0.009560 1.789380
v -1.088313 -0.063477 1.609582
v -1.060093 -0.099636 1.418989
v -1.180419 1.848932 1.613478
v -1.239533 1.771383 1.783540
v -1.292318 1.660200 1.936123
v -1.336746 1.519656 2.065363
v -1.371109 1.355151 2.166293
v -1.394087 1.173008 2.235035
v -1.404796 0.980227 2.268947
v -1.402826 0.784215 2.266725
v -1.388252 0.592506 2.228456
v -1.361633 0.412466 2.155611
v -1.323993 0.251015 2.050986
v -1.276778 0.114356 1.918605
v -1.221804 0.007743 1.763555
v -1.161181 -0.064729 1.591793
v -1.097241 -0.100274 1.409920
v -1.215108 1.849133 1.597377
v -1.307578 1.771778 1.751956
v -1.391105 1.660773 1.890270
v -1.462477 1.520385 2.007003
v -1.518953 1.356009 2.097669
v -1.558363 1.173961 2.158784
v -1.579191 0.981239 2.187999
v -1.580637 0.785247 2.184192
v -1.562646 0.593518 2.147509
v -1.525909 0.413419 2.079360
v -1.471837 0.251872 1.982363
v -1.402510 0.115086 1.860246
v -1.320590 0.008316 1.717702
v -1.229227 -0.064334 1.560209
v -1.131930 -0.100073 1.393819
v -1.246005 1.850166 1.574862
v -1.368185 1.773804 1.707791
v -1.479092 1.663714 1.826152
v -1.574464 1.524129 1.925397
v -1.650636 1.360411 2.001710
v -1.704681 1.178853 2.052160
v -1.734521 0.986431 2.074808
v -1.739010 0.790541 2.068783
v -1.717976 0.598710 2.034318
v -1.672227 0.418310 1.972736
v -1.603520 0.256274 1.886404
v -1.514497 0.118829 1.778639
v -1.408578 0.011257 1.653584
v -1.289834 -0.062308 1.516044
v -1.162827 -0.099040 1.371304
v -1.117247 1.889867 1.432473
v -1.271923 1.851991 1.546798
v -1.419024 1.777383 1.652742
v -1.552900 1.668911 1.746233
v -1.668403 1.530743 1.823679
v -1.761097 1.368188 1.882103
v -1.827418 1.187494 1.919260
v -1.864818 0.995605 1.933722
v -1.871860 0.799894 1.924933
v -1.848273 0.607884 1.893232
v -1.794964 0.426952 1.839836
v -1.713980 0.264051 1.766797
v -1.608436 0.125443 1.676922
v -1.482385 0.016454 1.573665
v -1.340673 -0.058729 1.460994
v -1.188745 -0.097215 1.343240
v -1.291865 1.854537 1.514264
v -1.458143 1.782378 1.588925
v -1.609691 1.676163 1.653585
v -1.740685 1.539973 1.705760
v -1.846090 1.379041 1.743445
v -1.921858 1.199554 1.765191
v -1.965075 1.008407 1.770163
v -1.974081 0.812948 1.758170
v -1.948530 0.620686 1.729673
v -1.889404 0.439011 1.685767
v -1.798974 0.274905 1.628138
v -1.680717 0.134673 1.559003
v -1.539176 0.023706 1.481017
v -1.379791 -0.053734 1.397177
v -1.208687 -0.094669 1.310706
v -1.305066 1.857708 1.478510
v -1.484037 1.788597 1.518791
v -1.647283 1.685192 1.551767
v -1.788530 1.551464 1.576170
v -1.902351 1.392554 1.591063
v -1.984371 1.214568 1.595874
v -2.031439 1.024346 1.590417
v -2.041745 0.829199 1.574903
v -2.014894 0.636625 1.549927
v -1.951917 0.454026 1.516450
v -1.855234 0.288417 1.475757
v -1.728562 0.146165 1.429413
v -1.576768 0.032734 1.379199
v -1.405685 -0.047515 1.327044
v -1.221888 -0.091498 1.274952
g Sphere_1sphere_
usemtl 
s off
f 509 510 495 494
f 503 504 489 488
f 510 511 496 495
f 504 505 490 489
f 484 483 498 499
f 511 512 497 496
f 505 506 491 490
f 499 500 485 484
f 506 507 492 491
f 500 501 486 485
f 507 508 493 492
f 501 502 487 486
f 508 509 494 493
f 502 503 488 487
f 514 515 500 499
f 521 522 507 506
f 515 516 501 500
f 522 523 508 507
f 516 517 502 501
f 523 524 509 508
f 517 518 503 502
f 524 525 510 509
f 518 519 504 503
f 525 526 511 510
f 519 520 505 504
f 513 514 499 498
f 526 527 512 511
f 520 521 506 505
f 533 534 519 518
f 540 541 526 525
f 534 535 520 519
f 528 529 514 513
f 541 542 527 526
f 535 536 521 520
f 529 530 515 514
f 536 537 522 521
f 530 531 516 515
f 537 538 523 522
f 531 532 517 516
f 538 539 524 523
f 532 533 518 517
f 539 540 525 524
f 552 553 538 537
f 546 547 532 531
f 553 554 539 538
f 547 548 533 532
f 554 555 540 539
f 548 549 534 533
f 555 556 541 540
f 549 550 535 534
f 543 544 529 528
f 556 557 542 541
f 550 551 536 535
f 544 545 530 529
f 551 552 537 536
f 545 546 531 530
f 571 572 557 556
f 565 566 551 550
f 559 560 545 544
f 566 567 552 551
f 560 561 546 545
f 567 568 553 552
f 561 562 547 546
f 568 569 554 553
f 562 563 548 547
f 569 570 555 554
f 563 564 549 548
f 570 571 556 555
f 564 565 550 549
f 558 559 544 543
f 584 585 570 569
f 578 579 564 563
f 585 586 571 570
f 579 580 565 564
f 573 574 559 558
f 586 587 572 571
f 580 581 566 565
f 574 575 560 559
f 581 582 567 566
f 575 576 561 560
f 582 583 568 567
f 576 577 562 561
f 583 584 569 568
f 577 578 563 562
f 597 598 583 582
f 591 592 577 576
f 598 599 584 583
f 592 593 578 577
f 599 600 585 584
f 593 594 579 578
f 600 601 586 585
f 594 595 580 579
f 588 589 574 573
f 601 602 587 586
f 595 596 581 580
f 589 590 575 574
f 596 597 582 581
f 590 591 576 575
f 616 617 602 601
f 610 611 596 595
f 604 605 590 589
f 611 612 597 596
f 605 606 591 590
f 612 613 598 597
f 606 607 592 591
f 613 614 599 598
f 607 608 593 592
f 614 615 600 599
f 608 609 594 593
f 615 616 601 600
f 609 610 595 594
f 603 604 589 588
f 629 630 615 614
f 623 624 609 608
f 630 631 616 615
f 624 625 610 609
f 618 619 604 603
f 631 632 617 616
f 625 626 611 610
f 619 620 605 604
f 626 627 612 611
f 620 621 606 605
f 627 628 613 612
f 621 622 607 606
f 628 629 614 613
f 622 623 608 607
f 642 643 628 627
f 636 637 622 621
f 643 644 629 628
f 637 638 623 622
f 644 645 630 629
f 638 639 624 623
f 645 646 631 630
f 639 640 625 624
f 633 634 619 618
f 646 647 632 631
f 640 641 626 625
f 634 635 620 619
f 641 642 627 626
f 635 636 621 620
f 648 649 634 633
f 661 662 647 646
f 655 656 641 640
f 649 650 635 634
f 656 657 642 641
f 650 651 636 635
f 657 658 643 642
f 651 652 637 636
f 658 659 644 643
f 652 653 638 637
f 659 660 645 644
f 653 654 639 638
f 660 661 646 645
f 654 655 640 639
f 667 668 653 652
f 674 675 660 659
f 668 669 654 653
f 675 676 661 660
f 669 670 655 654
f 663 664 649 648
f 676 677 662 661
f 670 671 656 655
f 664 665 650 649
f 671 672 657 656
f 665 666 651 650
f 672 673 658 657
f 666 667 652 651
f 673 674 659 658
f 686 687 672 671
f 680 681 666 665
f 687 688 673 672
f 681 682 667 666
f 688 689 674 673
f 682 683 668 667
f 689 690 675 674
f 683 684 669 668
f 690 691 676 675
f 684 685 670 669
f 678 679 664 663
f 691 692 677 676
f 685 686 671 670
f 679 680 665 664
f 705 706 691 690
f 699 700 685 684
f 693 694 679 678
f 706 707 692 691
f 700 701 686 685
f 694 695 680 679
f 701 702 687 686
f 695 696 681 680
f 702 703 688 687
f 696 697 682 681
f 703 704 689 688
f 697 698 683 682
f 704 705 690 689
f 698 699 684 683
f 718 719 704 703
f 712 713 698 697
f 719 720 705 704
f 713 714 699 698
f 720 721 706 705
f 714 715 700 699
f 708 709 694 693
f 721 722 707 706
f 715 716 701 700
f 709 710 695 694
f 716 717 702 701
f 710 711 696 695
f 717 718 703 702
f 711 712 697 696
f 731 732 717 716
f 725 726 711 710
f 732 733 718 717
f 726 727 712 711
f 733 734 719 718
f 727 728 713 712
f 734 735 720 719
f 728 729 714 713
f 735 736 721 720
f 729 730 715 714
f 723 724 709 708
f 736 737 722 721
f 730 731 716 715
f 724 725 710 709
f 750 751 736 735
f 744 745 730 729
f 738 739 724 723
f 751 752 737 736
f 745 746 731 730
f 739 740 725 724
f 746 747 732 731
f 740 741 726 725
f 747 748 733 732
f 741 742 727 726
f 748 749 734 733
f 742 743 728 727
f 749 750 735 734
f 743 744 729 728
f 763 764 749 748
f 757 758 743 742
f 764 765 750 749
f 758 759 744 743
f 765 766 751 750
f 759 760 745 744
f 753 754 739 738
f 766 767 752 751
f 760 761 746 745
f 754 755 740 739
f 761 762 747 746
f 755 756 741 740
f 762 763 748 747
f 756 757 742 741
f 776 777 762 761
f 770 771 756 755
f 777 778 763 762
f 771 772 757 756
f 778 779 764 763
f 772 773 758 757
f 779 780 765 764
f 773 774 759 758
f 780 781 766 765
f 774 775 760 759
f 768 769 754 753
f 781 782 767 766
f 775 776 761 760
f 769 770 755 754
f 795 796 781 780
f 789 790 775 774
f 783 784 769 768
f 796 797 782 781
f 790 791 776 775
f 784 785 770 769
f 791 792 777 776
f 785 786 771 770
f 792 793 778 777
f 786 787 772 771
f 793 794 779 778
f 787 788 773 772
f 794 795 780 779
f 788 789 774 773
f 801 802 787 786
f 808 809 794 793
f 802 803 788 787
f 809 810 795 794
f 803 804 789 788
f 810 811 796 795
f 804 805 790 789
f 798 799 784 783
f 811 812 797 796
f 805 806 791 790
f 799 800 785 784
f 806 807 792 791
f 800 801 786 785
f 807 808 793 792
f 821 822 806 805
f 815 816 800 799
f 822 823 807 806
f 816 817 801 800
f 823 824 808 807
f 817 818 802 801
f 824 825 809 808
f 818 819 803 802
f 825 826 810 809
f 819 820 804 803
f 826 827 811 810
f 820 821 805 804
f 814 815 799 798
f 827 828 812 811
f 840 841 826 825
f 834 835 820 819
f 841 842 827 826
f 835 836 821 820
f 829 830 815 814
f 842 843 828 827
f 836 837 822 821
f 830 831 816 815
f 837 838 823 822
f 831 832 817 816
f 838 839 824 823
f 832 833 818 817
f 839 840 825 824
f 833 834 819 818
f 853 854 839 838
f 847 848 833 832
f 854 855 840 839
f 848 849 834 833
f 855 856 841 840
f 849 850 835 834
f 856 857 842 841
f 850 851 836 835
f 844 845 830 829
f 857 858 843 842
f 851 852 837 836
f 845 846 831 830
f 852 853 838 837
f 846 847 832 831
f 872 873 858 857
f 866 867 852 851
f 860 861 846 845
f 867 868 853 852
f 861 862 847 846
f 868 869 854 853
f 862 863 848 847
f 869 870 855 854
f 863 864 849 848
f 870 871 856 855
f 864 865 850 849
f 871 872 857 856
f 865 866 851 850
f 859 860 845 844
f 885 886 871 870
f 879 880 865 864
f 886 887 872 871
f 880 881 866 865
f 874 875 860 859
f 887 888 873 872
f 881 882 867 866
f 875 876 861 860
f 882 883 868 867
f 876 877 862 861
f 883 884 869 868
f 877 878 863 862
f 884 885 870 869
f 878 879 864 863
f 898 899 884 883
f 892 893 878 877
f 899 900 885 884
f 893 894 879 878
f 900 901 886 885
f 894 895 880 879
f 901 902 887 886
f 895 896 881 880
f 889 890 875 874
f 902 903 888 887
f 896 897 882 881
f 890 891 876 875
f 897 898 883 882
f 891 892 877 876
f 917 918 903 902
f 911 912 897 896
f 905 906 891 890
f 912 913 898 897
f 906 907 892 891
f 913 914 899 898
f 907 908 893 892
f 914 915 900 899
f 908 909 894 893
f 915 916 901 900
f 909 910 895 894
f 916 917 902 901
f 910 911 896 895
f 904 905 890 889
f 931 932 916 915
f 925 926 910 909
f 932 933 917 916
f 926 927 911 910
f 920 921 905 904
f 933 934 918 917
f 927 928 912 911
f 921 922 906 905
f 928 929 913 912
f 922 923 907 906
f 929 930 914 913
f 923 924 908 907
f 930 931 915 914
f 924 925 909 908
f 937 938 923 922
f 944 945 930 929
f 938 939 924 923
f 945 946 931 930
f 939 940 925 924
f 946 947 932 931
f 940 941 926 925
f 947 948 933 932
f 941 942 927 926
f 935 936 921 920
f 948 949 934 933
f 942 943 928 927
f 936 937 922 921
f 943 944 929 928
f 956 957 942 941
f 950 951 936 935
f 963 964 949 948
f 957 958 943 942
f 951 952 937 936
f 958 959 944 943
f 952 953 938 937
f 959 960 945 944
f 953 954 939 938
f 960 961 946 945
f 954 955 940 939
f 961 962 947 946
f 955 956 941 940
f 962 963 948 947
f 498 483 919
f 512 813 497
f 527 813 512
f 919 513 498
f 919 528 513
f 542 813 527
f 919 543 528
f 557 813 542
f 572 813 557
f 919 558 543
f 919 573 558
f 587 813 572
f 919 588 573
f 602 813 587
f 617 813 602
f 919 603 588
f 919 618 603
f 632 813 617
f 919 633 618
f 647 813 632
f 662 813 647
f 919 648 633
f 919 663 648
f 677 813 662
f 919 678 663
f 692 813 677
f 707 813 692
f 919 693 678
f 919 708 693
f 722 813 707
f 737 813 722
f 919 723 708
f 752 813 737
f 919 738 723
f 919 753 738
f 767 813 752
f 782 813 767
f 919 768 753
f 919 783 768
f 797 813 782
f 919 798 783
f 812 813 797
f 828 813 812
f 919 814 798
f 919 829 814
f 843 813 828
f 919 844 829
f 858 813 843
f 873 813 858
f 919 859 844
f 919 874 859
f 888 813 873
f 919 889 874
f 903 813 888
f 918 813 903
f 919 904 889
f 919 920 904
f 934 813 918
f 919 935 920
f 949 813 934
f 964 813 949
f 919 950 935
f 493 494 961 960
f 487 488 955 954
f 494 495 962 961
f 488 489 956 955
f 919 483 950
f 495 496 963 962
f 489 490 957 956
f 483 484 951 950
f 496 497 964 963
f 490 491 958 957
f 484 485 952 951
f 497 813 964
f 491 492 959 958
f 485 486 953 952
f 492 493 960 959
f 486 487 954 953
