# Blender v2.58 (sub 0) OBJ File: ''
# www.blender.org
mtllib EC nObs_e.mtl
o Mesh.001_Sphere2
v 2.169297 -1.009191 -0.011276
v 1.974207 -1.028406 -0.011276
v 2.165549 -1.009191 -0.049336
v 2.356890 -0.952286 -0.011276
v 2.349537 -0.952286 -0.085934
v 2.529777 -0.859876 -0.011276
v 2.519102 -0.859876 -0.119663
v 2.681314 -0.735513 -0.011276
v 2.667727 -0.735513 -0.149226
v 2.805676 -0.583976 -0.011276
v 2.789701 -0.583976 -0.173488
v 2.898087 -0.411089 -0.011276
v 2.880335 -0.411089 -0.191516
v 2.954992 -0.223496 -0.011277
v 2.936147 -0.223496 -0.202618
v 2.974206 -0.028406 -0.011277
v 2.954993 -0.028406 -0.206367
v 2.954992 0.166684 -0.011277
v 2.936147 0.166684 -0.202618
v 2.898087 0.354277 -0.011276
v 2.880335 0.354277 -0.191516
v 2.805676 0.527164 -0.011276
v 2.789701 0.527164 -0.173488
v 2.681314 0.678701 -0.011276
v 2.667727 0.678701 -0.149226
v 2.529777 0.803064 -0.011276
v 2.519102 0.803064 -0.119663
v 2.356890 0.895474 -0.011276
v 2.349538 0.895474 -0.085934
v 2.169297 0.952379 -0.011276
v 2.165549 0.952379 -0.049336
v 1.974207 0.971594 -0.011276
v 2.154447 0.952379 -0.085934
v 2.327761 0.895474 -0.157723
v 2.487487 0.803064 -0.223884
v 2.627489 0.678701 -0.281874
v 2.742385 0.527164 -0.329466
v 2.827761 0.354277 -0.364830
v 2.880335 0.166684 -0.386607
v 2.898087 -0.028406 -0.393960
v 2.880335 -0.223496 -0.386607
v 2.827761 -0.411089 -0.364830
v 2.742385 -0.583976 -0.329466
v 2.627489 -0.735513 -0.281874
v 2.487487 -0.859876 -0.223884
v 2.327760 -0.952286 -0.157723
v 2.154447 -1.009191 -0.085934
v 2.136419 -1.009191 -0.119662
v 2.292397 -0.952286 -0.223884
v 2.436147 -0.859876 -0.319934
v 2.562145 -0.735513 -0.404124
v 2.665549 -0.583976 -0.473216
v 2.742385 -0.411089 -0.524556
v 2.789701 -0.223496 -0.556171
v 2.805677 -0.028406 -0.566846
v 2.789701 0.166684 -0.556171
v 2.742385 0.354277 -0.524556
v 2.665549 0.527164 -0.473216
v 2.562145 0.678701 -0.404124
v 2.436147 0.803064 -0.319935
v 2.292397 0.895474 -0.223884
v 2.136419 0.952379 -0.119663
v 2.112157 0.952379 -0.149226
v 2.244805 0.895474 -0.281874
v 2.367055 0.803064 -0.404124
v 2.474207 0.678701 -0.511276
v 2.562145 0.527164 -0.599214
v 2.627489 0.354277 -0.664558
v 2.667727 0.166684 -0.704796
v 2.681314 -0.028406 -0.718383
v 2.667727 -0.223496 -0.704796
v 2.627489 -0.411089 -0.664558
v 2.562145 -0.583976 -0.599214
v 2.474207 -0.735513 -0.511276
v 2.367055 -0.859876 -0.404124
v 2.244805 -0.952286 -0.281874
v 2.112157 -1.009191 -0.149226
v 2.082593 -1.009191 -0.173488
v 2.186815 -0.952286 -0.329466
v 2.282866 -0.859876 -0.473216
v 2.367055 -0.735513 -0.599214
v 2.436147 -0.583976 -0.702618
v 2.487487 -0.411089 -0.779454
v 2.519102 -0.223496 -0.826769
v 2.529777 -0.028406 -0.842746
v 2.519102 0.166684 -0.826769
v 2.487487 0.354277 -0.779454
v 2.436147 0.527164 -0.702618
v 2.367055 0.678701 -0.599214
v 2.282866 0.803064 -0.473216
v 2.186815 0.895474 -0.329466
v 2.082594 0.952379 -0.173488
v 2.048865 0.952379 -0.191516
v 2.120654 0.895474 -0.364830
v 2.186815 0.803064 -0.524556
v 2.244805 0.678701 -0.664558
v 2.292397 0.527164 -0.779454
v 2.327761 0.354277 -0.864830
v 2.349537 0.166684 -0.917404
v 2.356890 -0.028406 -0.935156
v 2.349537 -0.223496 -0.917404
v 2.327761 -0.411089 -0.864830
v 2.292397 -0.583976 -0.779454
v 2.244805 -0.735513 -0.664558
v 2.186815 -0.859876 -0.524556
v 2.120654 -0.952286 -0.364829
v 2.048865 -1.009191 -0.191516
v 2.012267 -1.009191 -0.202618
v 2.048865 -0.952286 -0.386606
v 2.082594 -0.859876 -0.556171
v 2.112157 -0.735513 -0.704796
v 2.136419 -0.583976 -0.826769
v 2.154447 -0.411089 -0.917404
v 2.165549 -0.223496 -0.973216
v 2.169297 -0.028406 -0.992061
v 2.165549 0.166684 -0.973216
v 2.154447 0.354277 -0.917404
v 2.136419 0.527164 -0.826769
v 2.112157 0.678701 -0.704796
v 2.082594 0.803064 -0.556171
v 2.048865 0.895474 -0.386606
v 2.012268 0.952379 -0.202618
v 1.974207 0.952379 -0.206367
v 1.974207 0.895474 -0.393960
v 1.974207 0.803064 -0.566846
v 1.974207 0.678701 -0.718383
v 1.974207 0.527164 -0.842746
v 1.974207 0.354277 -0.935156
v 1.974207 0.166684 -0.992061
v 1.974207 -0.028406 -1.011276
v 1.974207 -0.223496 -0.992061
v 1.974207 -0.411089 -0.935156
v 1.974207 -0.583976 -0.842746
v 1.974207 -0.735513 -0.718383
v 1.974207 -0.859876 -0.566846
v 1.974207 -0.952286 -0.393959
v 1.974207 -1.009191 -0.206366
v 1.936147 -1.009191 -0.202618
v 1.899549 -0.952286 -0.386606
v 1.865821 -0.859876 -0.556171
v 1.836258 -0.735513 -0.704796
v 1.811996 -0.583976 -0.826769
v 1.793967 -0.411089 -0.917404
v 1.782866 -0.223496 -0.973216
v 1.779117 -0.028406 -0.992061
v 1.782866 0.166684 -0.973216
v 1.793967 0.354277 -0.917404
v 1.811996 0.527164 -0.826769
v 1.836258 0.678701 -0.704796
v 1.865821 0.803064 -0.556171
v 1.899549 0.895474 -0.386606
v 1.936147 0.952379 -0.202618
v 1.899549 0.952379 -0.191516
v 1.827761 0.895474 -0.364830
v 1.761600 0.803064 -0.524556
v 1.703609 0.678701 -0.664558
v 1.656018 0.527164 -0.779454
v 1.620654 0.354277 -0.864829
v 1.598877 0.166684 -0.917403
v 1.591524 -0.028406 -0.935155
v 1.598877 -0.223496 -0.917403
v 1.620654 -0.411089 -0.864829
v 1.656018 -0.583976 -0.779454
v 1.703609 -0.735513 -0.664558
v 1.761600 -0.859876 -0.524556
v 1.827761 -0.952286 -0.364829
v 1.899549 -1.009191 -0.191516
v 1.865821 -1.009191 -0.173488
v 1.761600 -0.952286 -0.329466
v 1.665549 -0.859876 -0.473216
v 1.581360 -0.735513 -0.599214
v 1.512268 -0.583976 -0.702618
v 1.460927 -0.411089 -0.779454
v 1.429312 -0.223496 -0.826769
v 1.418637 -0.028406 -0.842745
v 1.429312 0.166684 -0.826769
v 1.460927 0.354277 -0.779454
v 1.512268 0.527164 -0.702618
v 1.581360 0.678701 -0.599214
v 1.665549 0.803064 -0.473216
v 1.761600 0.895474 -0.329466
v 1.865821 0.952379 -0.173488
v 1.836258 0.952379 -0.149226
v 1.703609 0.895474 -0.281874
v 1.581360 0.803064 -0.404124
v 1.474207 0.678701 -0.511276
v 1.386270 0.527164 -0.599214
v 1.320926 0.354277 -0.664558
v 1.280687 0.166684 -0.704796
v 1.267101 -0.028406 -0.718382
v 1.280687 -0.223496 -0.704796
v 1.320926 -0.411089 -0.664558
v 1.386270 -0.583976 -0.599214
v 1.474207 -0.735513 -0.511276
v 1.581360 -0.859876 -0.404124
v 1.703609 -0.952286 -0.281874
v 1.836258 -1.009191 -0.149226
v 1.811996 -1.009191 -0.119662
v 1.656018 -0.952286 -0.223884
v 1.512268 -0.859876 -0.319934
v 1.386270 -0.735513 -0.404124
v 1.282866 -0.583976 -0.473216
v 1.206030 -0.411089 -0.524556
v 1.158714 -0.223496 -0.556171
v 1.142738 -0.028406 -0.566846
v 1.158714 0.166684 -0.556171
v 1.206030 0.354277 -0.524556
v 1.282866 0.527164 -0.473216
v 1.386270 0.678701 -0.404124
v 1.512268 0.803064 -0.319934
v 1.656018 0.895474 -0.223884
v 1.811996 0.952379 -0.119663
v 1.793967 0.952379 -0.085934
v 1.620654 0.895474 -0.157723
v 1.460927 0.803064 -0.223884
v 1.320926 0.678701 -0.281874
v 1.206030 0.527164 -0.329466
v 1.120654 0.354277 -0.364830
v 1.068080 0.166684 -0.386606
v 1.050328 -0.028406 -0.393959
v 1.068080 -0.223496 -0.386606
v 1.120654 -0.411089 -0.364830
v 1.206030 -0.583976 -0.329466
v 1.320926 -0.735513 -0.281874
v 1.460927 -0.859876 -0.223884
v 1.620654 -0.952286 -0.157723
v 1.793968 -1.009191 -0.085934
v 1.782866 -1.009191 -0.049336
v 1.598877 -0.952286 -0.085934
v 1.429312 -0.859876 -0.119663
v 1.280687 -0.735513 -0.149226
v 1.158714 -0.583976 -0.173488
v 1.068080 -0.411089 -0.191516
v 1.012268 -0.223496 -0.202618
v 0.993423 -0.028406 -0.206366
v 1.012268 0.166684 -0.202618
v 1.068080 0.354277 -0.191516
v 1.158714 0.527164 -0.173488
v 1.280687 0.678701 -0.149226
v 1.429312 0.803064 -0.119662
v 1.598877 0.895474 -0.085934
v 1.782866 0.952379 -0.049336
v 1.779117 0.952379 -0.011276
v 1.591524 0.895474 -0.011276
v 1.418637 0.803064 -0.011276
v 1.267101 0.678701 -0.011276
v 1.142738 0.527164 -0.011276
v 1.050328 0.354277 -0.011276
v 0.993422 0.166684 -0.011276
v 0.974208 -0.028406 -0.011276
v 0.993422 -0.223496 -0.011276
v 1.050328 -0.411089 -0.011276
v 1.142738 -0.583976 -0.011276
v 1.267101 -0.735513 -0.011276
v 1.418637 -0.859876 -0.011276
v 1.591524 -0.952286 -0.011276
v 1.779117 -1.009191 -0.011276
v 1.782866 -1.009191 0.026784
v 1.598877 -0.952286 0.063382
v 1.429312 -0.859876 0.097110
v 1.280688 -0.735513 0.126673
v 1.158714 -0.583976 0.150935
v 1.068080 -0.411089 0.168964
v 1.012268 -0.223496 0.180066
v 0.993423 -0.028406 0.183814
v 1.012268 0.166684 0.180066
v 1.068080 0.354277 0.168964
v 1.158715 0.527164 0.150935
v 1.280688 0.678701 0.126673
v 1.429312 0.803064 0.097110
v 1.598877 0.895474 0.063382
v 1.782866 0.952379 0.026784
v 1.793967 0.952379 0.063382
v 1.620654 0.895474 0.135170
v 1.460928 0.803064 0.201331
v 1.320926 0.678701 0.259322
v 1.206030 0.527164 0.306913
v 1.120654 0.354277 0.342277
v 1.068080 0.166684 0.364054
v 1.050328 -0.028406 0.371407
v 1.068080 -0.223496 0.364054
v 1.120654 -0.411089 0.342277
v 1.206030 -0.583976 0.306913
v 1.320926 -0.735513 0.259322
v 1.460928 -0.859876 0.201331
v 1.620654 -0.952286 0.135170
v 1.793968 -1.009191 0.063381
v 1.811996 -1.009191 0.097110
v 1.656018 -0.952286 0.201331
v 1.512268 -0.859876 0.297382
v 1.386270 -0.735513 0.381571
v 1.282866 -0.583976 0.450663
v 1.206030 -0.411089 0.502004
v 1.158715 -0.223496 0.533619
v 1.142739 -0.028406 0.544294
v 1.158715 0.166684 0.533619
v 1.206030 0.354277 0.502004
v 1.282866 0.527164 0.450663
v 1.386270 0.678701 0.381571
v 1.512268 0.803064 0.297382
v 1.656018 0.895474 0.201331
v 1.811996 0.952379 0.097110
v 1.836258 0.952379 0.126673
v 1.703609 0.895474 0.259322
v 1.581360 0.803064 0.381571
v 1.474207 0.678701 0.488724
v 1.386270 0.527164 0.576661
v 1.320926 0.354277 0.642005
v 1.280688 0.166684 0.682244
v 1.267101 -0.028406 0.695830
v 1.280688 -0.223496 0.682244
v 1.320926 -0.411089 0.642005
v 1.386270 -0.583976 0.576661
v 1.474207 -0.735513 0.488724
v 1.581360 -0.859876 0.381571
v 1.703609 -0.952286 0.259322
v 1.836258 -1.009191 0.126673
v 1.865821 -1.009191 0.150935
v 1.761600 -0.952286 0.306913
v 1.665549 -0.859876 0.450663
v 1.581360 -0.735513 0.576661
v 1.512268 -0.583976 0.680065
v 1.460927 -0.411089 0.756901
v 1.429313 -0.223496 0.804217
v 1.418638 -0.028406 0.820193
v 1.429313 0.166684 0.804217
v 1.460927 0.354277 0.756901
v 1.512268 0.527164 0.680065
v 1.581360 0.678701 0.576661
v 1.665549 0.803064 0.450663
v 1.761600 0.895474 0.306913
v 1.865821 0.952379 0.150935
v 1.899549 0.952379 0.168964
v 1.827761 0.895474 0.342277
v 1.761600 0.803064 0.502003
v 1.703609 0.678701 0.642005
v 1.656018 0.527164 0.756901
v 1.620654 0.354277 0.842277
v 1.598877 0.166684 0.894851
v 1.591525 -0.028406 0.912603
v 1.598877 -0.223496 0.894851
v 1.620654 -0.411089 0.842277
v 1.656018 -0.583976 0.756901
v 1.703609 -0.735513 0.642005
v 1.761600 -0.859876 0.502003
v 1.827761 -0.952286 0.342277
v 1.899550 -1.009191 0.168963
v 1.936147 -1.009191 0.180065
v 1.899549 -0.952286 0.364054
v 1.865821 -0.859876 0.533619
v 1.836258 -0.735513 0.682244
v 1.811996 -0.583976 0.804217
v 1.793967 -0.411089 0.894851
v 1.782866 -0.223496 0.950663
v 1.779118 -0.028406 0.969508
v 1.782866 0.166684 0.950663
v 1.793967 0.354277 0.894851
v 1.811996 0.527164 0.804217
v 1.836258 0.678701 0.682244
v 1.865821 0.803064 0.533618
v 1.899549 0.895474 0.364054
v 1.936147 0.952379 0.180065
v 1.974207 0.952379 0.183814
v 1.974207 0.895474 0.371407
v 1.974207 0.803064 0.544294
v 1.974207 0.678701 0.695830
v 1.974207 0.527164 0.820193
v 1.974207 0.354277 0.912603
v 1.974208 0.166684 0.969509
v 1.974208 -0.028406 0.988723
v 1.974208 -0.223496 0.969509
v 1.974207 -0.411089 0.912603
v 1.974207 -0.583976 0.820193
v 1.974207 -0.735513 0.695830
v 1.974207 -0.859876 0.544294
v 1.974207 -0.952286 0.371407
v 1.974207 -1.009191 0.183814
v 2.012268 -1.009191 0.180065
v 2.048865 -0.952286 0.364054
v 2.082594 -0.859876 0.533619
v 2.112157 -0.735513 0.682243
v 2.136419 -0.583976 0.804216
v 2.154447 -0.411089 0.894851
v 2.165549 -0.223496 0.950663
v 2.169298 -0.028406 0.969508
v 2.165549 0.166684 0.950663
v 2.154447 0.354277 0.894851
v 2.136419 0.527164 0.804216
v 2.112157 0.678701 0.682243
v 2.082594 0.803064 0.533618
v 2.048865 0.895474 0.364054
v 2.012268 0.952379 0.180065
v 2.048865 0.952379 0.168964
v 2.120654 0.895474 0.342277
v 2.186815 0.803064 0.502003
v 2.244805 0.678701 0.642005
v 2.292397 0.527164 0.756901
v 2.327761 0.354277 0.842277
v 2.349538 0.166684 0.894851
v 2.356891 -0.028406 0.912602
v 2.349538 -0.223496 0.894851
v 2.327761 -0.411089 0.842277
v 2.292397 -0.583976 0.756901
v 2.244805 -0.735513 0.642005
v 2.186815 -0.859876 0.502003
v 2.120654 -0.952286 0.342277
v 2.048865 -1.009191 0.168963
v 2.082593 -1.009191 0.150935
v 2.186815 -0.952286 0.306913
v 2.282866 -0.859876 0.450663
v 2.367055 -0.735513 0.576661
v 2.436147 -0.583976 0.680065
v 2.487487 -0.411089 0.756901
v 2.519102 -0.223496 0.804216
v 2.529777 -0.028406 0.820192
v 2.519102 0.166684 0.804216
v 2.487487 0.354277 0.756901
v 2.436147 0.527164 0.680065
v 2.367055 0.678701 0.576661
v 2.282866 0.803064 0.450663
v 2.186815 0.895474 0.306913
v 2.082594 0.952379 0.150935
v 2.112157 0.952379 0.126673
v 2.244805 0.895474 0.259322
v 2.367054 0.803064 0.381571
v 2.474207 0.678701 0.488724
v 2.562145 0.527164 0.576661
v 2.627489 0.354277 0.642005
v 2.667727 0.166684 0.682243
v 2.681314 -0.028406 0.695829
v 2.667727 -0.223496 0.682243
v 2.627489 -0.411089 0.642005
v 2.562145 -0.583976 0.576661
v 2.474207 -0.735513 0.488724
v 2.367054 -0.859876 0.381571
v 2.244805 -0.952286 0.259322
v 2.112157 -1.009191 0.126673
v 2.136419 -1.009191 0.097110
v 2.292397 -0.952286 0.201331
v 2.436147 -0.859876 0.297382
v 2.562145 -0.735513 0.381571
v 2.665549 -0.583976 0.450663
v 2.742385 -0.411089 0.502003
v 2.789700 -0.223496 0.533618
v 2.805676 -0.028406 0.544293
v 2.789700 0.166684 0.533618
v 2.742385 0.354277 0.502003
v 2.665549 0.527164 0.450663
v 2.562145 0.678701 0.381571
v 2.436147 0.803064 0.297382
v 2.292397 0.895474 0.201331
v 2.136419 0.952379 0.097110
v 2.154447 0.952379 0.063381
v 2.327760 0.895474 0.135170
v 2.487487 0.803064 0.201331
v 2.627489 0.678701 0.259322
v 2.742384 0.527164 0.306913
v 2.827760 0.354277 0.342277
v 2.880334 0.166684 0.364054
v 2.898086 -0.028406 0.371406
v 2.880334 -0.223496 0.364054
v 2.827760 -0.411089 0.342277
v 2.742385 -0.583976 0.306913
v 2.627489 -0.735513 0.259322
v 2.487487 -0.859876 0.201331
v 2.327760 -0.952286 0.135170
v 2.154447 -1.009191 0.063381
v 2.165549 -1.009191 0.026784
v 2.349537 -0.952286 0.063381
v 2.519102 -0.859876 0.097110
v 2.667727 -0.735513 0.126673
v 2.789700 -0.583976 0.150935
v 2.880334 -0.411089 0.168963
v 2.936146 -0.223496 0.180065
v 2.954991 -0.028406 0.183813
v 2.936146 0.166684 0.180065
v 2.880334 0.354277 0.168963
v 2.789700 0.527164 0.150935
v 2.667727 0.678701 0.126673
v 2.519102 0.803064 0.097110
v 2.349537 0.895474 0.063381
v 2.165549 0.952379 0.026784
g Mesh.001_Sphere2_(null)
usemtl (null)
s off
f 1 2 3
f 4 1 3 5
f 6 4 5 7
f 8 6 7 9
f 10 8 9 11
f 12 10 11 13
f 14 12 13 15
f 16 14 15 17
f 18 16 17 19
f 20 18 19 21
f 22 20 21 23
f 24 22 23 25
f 26 24 25 27
f 28 26 27 29
f 30 28 29 31
f 32 30 31
f 32 31 33
f 31 29 34 33
f 29 27 35 34
f 27 25 36 35
f 25 23 37 36
f 23 21 38 37
f 21 19 39 38
f 19 17 40 39
f 17 15 41 40
f 15 13 42 41
f 13 11 43 42
f 11 9 44 43
f 9 7 45 44
f 7 5 46 45
f 5 3 47 46
f 3 2 47
f 47 2 48
f 46 47 48 49
f 45 46 49 50
f 44 45 50 51
f 43 44 51 52
f 42 43 52 53
f 41 42 53 54
f 40 41 54 55
f 39 40 55 56
f 38 39 56 57
f 37 38 57 58
f 36 37 58 59
f 35 36 59 60
f 34 35 60 61
f 33 34 61 62
f 32 33 62
f 32 62 63
f 62 61 64 63
f 61 60 65 64
f 60 59 66 65
f 59 58 67 66
f 58 57 68 67
f 57 56 69 68
f 56 55 70 69
f 55 54 71 70
f 54 53 72 71
f 53 52 73 72
f 52 51 74 73
f 51 50 75 74
f 50 49 76 75
f 49 48 77 76
f 48 2 77
f 77 2 78
f 76 77 78 79
f 75 76 79 80
f 74 75 80 81
f 73 74 81 82
f 72 73 82 83
f 71 72 83 84
f 70 71 84 85
f 69 70 85 86
f 68 69 86 87
f 67 68 87 88
f 66 67 88 89
f 65 66 89 90
f 64 65 90 91
f 63 64 91 92
f 32 63 92
f 32 92 93
f 92 91 94 93
f 91 90 95 94
f 90 89 96 95
f 89 88 97 96
f 88 87 98 97
f 87 86 99 98
f 86 85 100 99
f 85 84 101 100
f 84 83 102 101
f 83 82 103 102
f 82 81 104 103
f 81 80 105 104
f 80 79 106 105
f 79 78 107 106
f 78 2 107
f 107 2 108
f 106 107 108 109
f 105 106 109 110
f 104 105 110 111
f 103 104 111 112
f 102 103 112 113
f 101 102 113 114
f 100 101 114 115
f 99 100 115 116
f 98 99 116 117
f 97 98 117 118
f 96 97 118 119
f 95 96 119 120
f 94 95 120 121
f 93 94 121 122
f 32 93 122
f 32 122 123
f 122 121 124 123
f 121 120 125 124
f 120 119 126 125
f 119 118 127 126
f 118 117 128 127
f 117 116 129 128
f 116 115 130 129
f 115 114 131 130
f 114 113 132 131
f 113 112 133 132
f 112 111 134 133
f 111 110 135 134
f 110 109 136 135
f 109 108 137 136
f 108 2 137
f 137 2 138
f 136 137 138 139
f 135 136 139 140
f 134 135 140 141
f 133 134 141 142
f 132 133 142 143
f 131 132 143 144
f 130 131 144 145
f 129 130 145 146
f 128 129 146 147
f 127 128 147 148
f 126 127 148 149
f 125 126 149 150
f 124 125 150 151
f 123 124 151 152
f 32 123 152
f 32 152 153
f 152 151 154 153
f 151 150 155 154
f 150 149 156 155
f 149 148 157 156
f 148 147 158 157
f 147 146 159 158
f 146 145 160 159
f 145 144 161 160
f 144 143 162 161
f 143 142 163 162
f 142 141 164 163
f 141 140 165 164
f 140 139 166 165
f 139 138 167 166
f 138 2 167
f 167 2 168
f 166 167 168 169
f 165 166 169 170
f 164 165 170 171
f 163 164 171 172
f 162 163 172 173
f 161 162 173 174
f 160 161 174 175
f 159 160 175 176
f 158 159 176 177
f 157 158 177 178
f 156 157 178 179
f 155 156 179 180
f 154 155 180 181
f 153 154 181 182
f 32 153 182
f 32 182 183
f 182 181 184 183
f 181 180 185 184
f 180 179 186 185
f 179 178 187 186
f 178 177 188 187
f 177 176 189 188
f 176 175 190 189
f 175 174 191 190
f 174 173 192 191
f 173 172 193 192
f 172 171 194 193
f 171 170 195 194
f 170 169 196 195
f 169 168 197 196
f 168 2 197
f 197 2 198
f 196 197 198 199
f 195 196 199 200
f 194 195 200 201
f 193 194 201 202
f 192 193 202 203
f 191 192 203 204
f 190 191 204 205
f 189 190 205 206
f 188 189 206 207
f 187 188 207 208
f 186 187 208 209
f 185 186 209 210
f 184 185 210 211
f 183 184 211 212
f 32 183 212
f 32 212 213
f 212 211 214 213
f 211 210 215 214
f 210 209 216 215
f 209 208 217 216
f 208 207 218 217
f 207 206 219 218
f 206 205 220 219
f 205 204 221 220
f 204 203 222 221
f 203 202 223 222
f 202 201 224 223
f 201 200 225 224
f 200 199 226 225
f 199 198 227 226
f 198 2 227
f 227 2 228
f 226 227 228 229
f 225 226 229 230
f 224 225 230 231
f 223 224 231 232
f 222 223 232 233
f 221 222 233 234
f 220 221 234 235
f 219 220 235 236
f 218 219 236 237
f 217 218 237 238
f 216 217 238 239
f 215 216 239 240
f 214 215 240 241
f 213 214 241 242
f 32 213 242
f 32 242 243
f 242 241 244 243
f 241 240 245 244
f 240 239 246 245
f 239 238 247 246
f 238 237 248 247
f 237 236 249 248
f 236 235 250 249
f 235 234 251 250
f 234 233 252 251
f 233 232 253 252
f 232 231 254 253
f 231 230 255 254
f 230 229 256 255
f 229 228 257 256
f 228 2 257
f 257 2 258
f 256 257 258 259
f 255 256 259 260
f 254 255 260 261
f 253 254 261 262
f 252 253 262 263
f 251 252 263 264
f 250 251 264 265
f 249 250 265 266
f 248 249 266 267
f 247 248 267 268
f 246 247 268 269
f 245 246 269 270
f 244 245 270 271
f 243 244 271 272
f 32 243 272
f 32 272 273
f 272 271 274 273
f 271 270 275 274
f 270 269 276 275
f 269 268 277 276
f 268 267 278 277
f 267 266 279 278
f 266 265 280 279
f 265 264 281 280
f 264 263 282 281
f 263 262 283 282
f 262 261 284 283
f 261 260 285 284
f 260 259 286 285
f 259 258 287 286
f 258 2 287
f 287 2 288
f 286 287 288 289
f 285 286 289 290
f 284 285 290 291
f 283 284 291 292
f 282 283 292 293
f 281 282 293 294
f 280 281 294 295
f 279 280 295 296
f 278 279 296 297
f 277 278 297 298
f 276 277 298 299
f 275 276 299 300
f 274 275 300 301
f 273 274 301 302
f 32 273 302
f 32 302 303
f 302 301 304 303
f 301 300 305 304
f 300 299 306 305
f 299 298 307 306
f 298 297 308 307
f 297 296 309 308
f 296 295 310 309
f 295 294 311 310
f 294 293 312 311
f 293 292 313 312
f 292 291 314 313
f 291 290 315 314
f 290 289 316 315
f 289 288 317 316
f 288 2 317
f 317 2 318
f 316 317 318 319
f 315 316 319 320
f 314 315 320 321
f 313 314 321 322
f 312 313 322 323
f 311 312 323 324
f 310 311 324 325
f 309 310 325 326
f 308 309 326 327
f 307 308 327 328
f 306 307 328 329
f 305 306 329 330
f 304 305 330 331
f 303 304 331 332
f 32 303 332
f 32 332 333
f 332 331 334 333
f 331 330 335 334
f 330 329 336 335
f 329 328 337 336
f 328 327 338 337
f 327 326 339 338
f 326 325 340 339
f 325 324 341 340
f 324 323 342 341
f 323 322 343 342
f 322 321 344 343
f 321 320 345 344
f 320 319 346 345
f 319 318 347 346
f 318 2 347
f 347 2 348
f 346 347 348 349
f 345 346 349 350
f 344 345 350 351
f 343 344 351 352
f 342 343 352 353
f 341 342 353 354
f 340 341 354 355
f 339 340 355 356
f 338 339 356 357
f 337 338 357 358
f 336 337 358 359
f 335 336 359 360
f 334 335 360 361
f 333 334 361 362
f 32 333 362
f 32 362 363
f 362 361 364 363
f 361 360 365 364
f 360 359 366 365
f 359 358 367 366
f 358 357 368 367
f 357 356 369 368
f 356 355 370 369
f 355 354 371 370
f 354 353 372 371
f 353 352 373 372
f 352 351 374 373
f 351 350 375 374
f 350 349 376 375
f 349 348 377 376
f 348 2 377
f 377 2 378
f 376 377 378 379
f 375 376 379 380
f 374 375 380 381
f 373 374 381 382
f 372 373 382 383
f 371 372 383 384
f 370 371 384 385
f 369 370 385 386
f 368 369 386 387
f 367 368 387 388
f 366 367 388 389
f 365 366 389 390
f 364 365 390 391
f 363 364 391 392
f 32 363 392
f 32 392 393
f 392 391 394 393
f 391 390 395 394
f 390 389 396 395
f 389 388 397 396
f 388 387 398 397
f 387 386 399 398
f 386 385 400 399
f 385 384 401 400
f 384 383 402 401
f 383 382 403 402
f 382 381 404 403
f 381 380 405 404
f 380 379 406 405
f 379 378 407 406
f 378 2 407
f 407 2 408
f 406 407 408 409
f 405 406 409 410
f 404 405 410 411
f 403 404 411 412
f 402 403 412 413
f 401 402 413 414
f 400 401 414 415
f 399 400 415 416
f 398 399 416 417
f 397 398 417 418
f 396 397 418 419
f 395 396 419 420
f 394 395 420 421
f 393 394 421 422
f 32 393 422
f 32 422 423
f 422 421 424 423
f 421 420 425 424
f 420 419 426 425
f 419 418 427 426
f 418 417 428 427
f 417 416 429 428
f 416 415 430 429
f 415 414 431 430
f 414 413 432 431
f 413 412 433 432
f 412 411 434 433
f 411 410 435 434
f 410 409 436 435
f 409 408 437 436
f 408 2 437
f 437 2 438
f 436 437 438 439
f 435 436 439 440
f 434 435 440 441
f 433 434 441 442
f 432 433 442 443
f 431 432 443 444
f 430 431 444 445
f 429 430 445 446
f 428 429 446 447
f 427 428 447 448
f 426 427 448 449
f 425 426 449 450
f 424 425 450 451
f 423 424 451 452
f 32 423 452
f 32 452 453
f 452 451 454 453
f 451 450 455 454
f 450 449 456 455
f 449 448 457 456
f 448 447 458 457
f 447 446 459 458
f 446 445 460 459
f 445 444 461 460
f 444 443 462 461
f 443 442 463 462
f 442 441 464 463
f 441 440 465 464
f 440 439 466 465
f 439 438 467 466
f 438 2 467
f 467 2 468
f 466 467 468 469
f 465 466 469 470
f 464 465 470 471
f 463 464 471 472
f 462 463 472 473
f 461 462 473 474
f 460 461 474 475
f 459 460 475 476
f 458 459 476 477
f 457 458 477 478
f 456 457 478 479
f 455 456 479 480
f 454 455 480 481
f 453 454 481 482
f 32 453 482
f 32 482 30
f 482 481 28 30
f 481 480 26 28
f 480 479 24 26
f 479 478 22 24
f 478 477 20 22
f 477 476 18 20
f 476 475 16 18
f 475 474 14 16
f 474 473 12 14
f 473 472 10 12
f 472 471 8 10
f 471 470 6 8
f 470 469 4 6
f 1 4 469 468
f 2 1 468
o Mesh_Sphere1
v 0.179681 -1.020444 -0.003273
v -0.015409 -1.039659 -0.003273
v 0.175932 -1.020444 -0.041333
v 0.367274 -0.963538 -0.003273
v 0.359921 -0.963538 -0.077931
v 0.540161 -0.871128 -0.003273
v 0.529486 -0.871128 -0.111659
v 0.691697 -0.746765 -0.003273
v 0.678111 -0.746765 -0.141222
v 0.816060 -0.595229 -0.003273
v 0.800084 -0.595229 -0.165484
v 0.908470 -0.422342 -0.003273
v 0.890718 -0.422342 -0.183513
v 0.965375 -0.234749 -0.003273
v 0.946531 -0.234749 -0.194614
v 0.984590 -0.039659 -0.003273
v 0.965376 -0.039659 -0.198363
v 0.965375 0.155432 -0.003273
v 0.946531 0.155432 -0.194614
v 0.908470 0.343025 -0.003273
v 0.890718 0.343025 -0.183513
v 0.816060 0.515912 -0.003273
v 0.800084 0.515912 -0.165484
v 0.691697 0.667448 -0.003273
v 0.678111 0.667448 -0.141222
v 0.540160 0.791811 -0.003273
v 0.529486 0.791811 -0.111659
v 0.367274 0.884221 -0.003273
v 0.359921 0.884221 -0.077931
v 0.179681 0.941127 -0.003273
v 0.175933 0.941127 -0.041333
v -0.015409 0.960341 -0.003273
v 0.164831 0.941127 -0.077931
v 0.338144 0.884221 -0.149719
v 0.497871 0.791811 -0.215880
v 0.637872 0.667448 -0.273871
v 0.752768 0.515912 -0.321462
v 0.838144 0.343025 -0.356826
v 0.890718 0.155432 -0.378603
v 0.908470 -0.039659 -0.385956
v 0.890718 -0.234749 -0.378603
v 0.838144 -0.422342 -0.356826
v 0.752769 -0.595229 -0.321462
v 0.637872 -0.746765 -0.273871
v 0.497871 -0.871128 -0.215880
v 0.338144 -0.963538 -0.149719
v 0.164831 -1.020444 -0.077930
v 0.146802 -1.020444 -0.111659
v 0.302780 -0.963538 -0.215880
v 0.446531 -0.871128 -0.311931
v 0.572529 -0.746765 -0.396120
v 0.675932 -0.595229 -0.465212
v 0.752769 -0.422342 -0.516553
v 0.800084 -0.234749 -0.548168
v 0.816060 -0.039659 -0.558843
v 0.800084 0.155432 -0.548168
v 0.752769 0.343025 -0.516553
v 0.675932 0.515912 -0.465212
v 0.572529 0.667448 -0.396120
v 0.446531 0.791811 -0.311931
v 0.302780 0.884221 -0.215880
v 0.146802 0.941127 -0.111659
v 0.122540 0.941127 -0.141222
v 0.255189 0.884221 -0.273871
v 0.377438 0.791811 -0.396120
v 0.484591 0.667448 -0.503273
v 0.572528 0.515912 -0.591210
v 0.637872 0.343025 -0.656554
v 0.678111 0.155432 -0.696793
v 0.691697 -0.039659 -0.710379
v 0.678111 -0.234749 -0.696793
v 0.637872 -0.422342 -0.656554
v 0.572529 -0.595229 -0.591210
v 0.484591 -0.746765 -0.503273
v 0.377438 -0.871128 -0.396120
v 0.255189 -0.963538 -0.273871
v 0.122540 -1.020444 -0.141222
v 0.092977 -1.020444 -0.165484
v 0.197198 -0.963538 -0.321462
v 0.293249 -0.871128 -0.465212
v 0.377438 -0.746765 -0.591210
v 0.446531 -0.595229 -0.694614
v 0.497871 -0.422342 -0.771450
v 0.529486 -0.234749 -0.818766
v 0.540161 -0.039659 -0.834742
v 0.529486 0.155432 -0.818766
v 0.497871 0.343025 -0.771450
v 0.446530 0.515912 -0.694614
v 0.377438 0.667448 -0.591210
v 0.293249 0.791811 -0.465212
v 0.197198 0.884221 -0.321462
v 0.092977 0.941127 -0.165484
v 0.059249 0.941127 -0.183513
v 0.131037 0.884221 -0.356826
v 0.197198 0.791811 -0.516553
v 0.255189 0.667448 -0.656554
v 0.302780 0.515912 -0.771450
v 0.338144 0.343025 -0.856826
v 0.359921 0.155432 -0.909400
v 0.367274 -0.039659 -0.927152
v 0.359921 -0.234749 -0.909400
v 0.338144 -0.422342 -0.856826
v 0.302780 -0.595229 -0.771450
v 0.255189 -0.746765 -0.656554
v 0.197198 -0.871128 -0.516553
v 0.131037 -0.963538 -0.356826
v 0.059249 -1.020444 -0.183512
v 0.022651 -1.020444 -0.194614
v 0.059249 -0.963538 -0.378603
v 0.092977 -0.871128 -0.548168
v 0.122541 -0.746765 -0.696793
v 0.146802 -0.595229 -0.818766
v 0.164831 -0.422342 -0.909400
v 0.175932 -0.234749 -0.965212
v 0.179681 -0.039659 -0.984058
v 0.175932 0.155432 -0.965212
v 0.164831 0.343025 -0.909400
v 0.146802 0.515912 -0.818766
v 0.122541 0.667448 -0.696793
v 0.092977 0.791811 -0.548168
v 0.059249 0.884221 -0.378603
v 0.022651 0.941127 -0.194614
v -0.015409 0.941127 -0.198363
v -0.015409 0.884221 -0.385956
v -0.015409 0.791811 -0.558843
v -0.015409 0.667448 -0.710379
v -0.015409 0.515912 -0.834742
v -0.015409 0.343025 -0.927152
v -0.015409 0.155432 -0.984058
v -0.015409 -0.039659 -1.003272
v -0.015409 -0.234749 -0.984058
v -0.015409 -0.422342 -0.927152
v -0.015409 -0.595229 -0.834742
v -0.015409 -0.746765 -0.710379
v -0.015409 -0.871128 -0.558843
v -0.015409 -0.963538 -0.385956
v -0.015409 -1.020444 -0.198363
v -0.053469 -1.020444 -0.194614
v -0.090067 -0.963538 -0.378603
v -0.123796 -0.871128 -0.548168
v -0.153359 -0.746765 -0.696793
v -0.177621 -0.595229 -0.818766
v -0.195649 -0.422342 -0.909400
v -0.206751 -0.234749 -0.965212
v -0.210500 -0.039659 -0.984058
v -0.206751 0.155432 -0.965212
v -0.195649 0.343025 -0.909400
v -0.177621 0.515912 -0.818766
v -0.153359 0.667448 -0.696793
v -0.123796 0.791811 -0.548168
v -0.090067 0.884221 -0.378603
v -0.053469 0.941127 -0.194614
v -0.090067 0.941127 -0.183513
v -0.161856 0.884221 -0.356826
v -0.228017 0.791811 -0.516553
v -0.286007 0.667448 -0.656554
v -0.333599 0.515912 -0.771450
v -0.368963 0.343025 -0.856826
v -0.390739 0.155432 -0.909400
v -0.398093 -0.039659 -0.927152
v -0.390739 -0.234749 -0.909400
v -0.368963 -0.422342 -0.856826
v -0.333599 -0.595229 -0.771450
v -0.286007 -0.746765 -0.656554
v -0.228017 -0.871128 -0.516553
v -0.161856 -0.963538 -0.356826
v -0.090067 -1.020444 -0.183512
v -0.123795 -1.020444 -0.165484
v -0.228017 -0.963538 -0.321462
v -0.324067 -0.871128 -0.465212
v -0.408257 -0.746765 -0.591210
v -0.477349 -0.595229 -0.694614
v -0.528689 -0.422342 -0.771450
v -0.560304 -0.234749 -0.818766
v -0.570979 -0.039659 -0.834742
v -0.560304 0.155432 -0.818766
v -0.528689 0.343025 -0.771450
v -0.477349 0.515912 -0.694614
v -0.408257 0.667448 -0.591210
v -0.324067 0.791811 -0.465212
v -0.228017 0.884221 -0.321462
v -0.123796 0.941127 -0.165484
v -0.153359 0.941127 -0.141222
v -0.286007 0.884221 -0.273871
v -0.408257 0.791811 -0.396120
v -0.515409 0.667448 -0.503273
v -0.603347 0.515912 -0.591210
v -0.668691 0.343025 -0.656554
v -0.708929 0.155432 -0.696792
v -0.722516 -0.039659 -0.710379
v -0.708929 -0.234749 -0.696792
v -0.668691 -0.422342 -0.656554
v -0.603347 -0.595229 -0.591210
v -0.515409 -0.746765 -0.503273
v -0.408257 -0.871128 -0.396120
v -0.286007 -0.963538 -0.273871
v -0.153359 -1.020444 -0.141222
v -0.177621 -1.020444 -0.111659
v -0.333599 -0.963538 -0.215880
v -0.477349 -0.871128 -0.311931
v -0.603347 -0.746765 -0.396120
v -0.706751 -0.595229 -0.465212
v -0.783587 -0.422342 -0.516553
v -0.830902 -0.234749 -0.548168
v -0.846879 -0.039659 -0.558842
v -0.830902 0.155432 -0.548168
v -0.783587 0.343025 -0.516553
v -0.706751 0.515912 -0.465212
v -0.603347 0.667448 -0.396120
v -0.477349 0.791811 -0.311931
v -0.333599 0.884221 -0.215880
v -0.177621 0.941127 -0.111659
v -0.195649 0.941127 -0.077930
v -0.368962 0.884221 -0.149719
v -0.528689 0.791811 -0.215880
v -0.668691 0.667448 -0.273871
v -0.783587 0.515912 -0.321462
v -0.868962 0.343025 -0.356826
v -0.921536 0.155432 -0.378603
v -0.939288 -0.039659 -0.385956
v -0.921536 -0.234749 -0.378603
v -0.868962 -0.422342 -0.356826
v -0.783587 -0.595229 -0.321462
v -0.668691 -0.746765 -0.273871
v -0.528689 -0.871128 -0.215880
v -0.368962 -0.963538 -0.149719
v -0.195649 -1.020444 -0.077930
v -0.206751 -1.020444 -0.041333
v -0.390739 -0.963538 -0.077930
v -0.560304 -0.871128 -0.111659
v -0.708929 -0.746765 -0.141222
v -0.830902 -0.595229 -0.165484
v -0.921536 -0.422342 -0.183513
v -0.977349 -0.234749 -0.194614
v -0.996194 -0.039659 -0.198363
v -0.977349 0.155432 -0.194614
v -0.921536 0.343025 -0.183513
v -0.830902 0.515912 -0.165484
v -0.708929 0.667448 -0.141222
v -0.560304 0.791811 -0.111659
v -0.390739 0.884221 -0.077930
v -0.206751 0.941127 -0.041333
v -0.210499 0.941127 -0.003273
v -0.398093 0.884221 -0.003273
v -0.570979 0.791811 -0.003273
v -0.722516 0.667448 -0.003273
v -0.846878 0.515912 -0.003273
v -0.939288 0.343025 -0.003273
v -0.996194 0.155432 -0.003273
v -1.015409 -0.039659 -0.003272
v -0.996194 -0.234749 -0.003273
v -0.939288 -0.422342 -0.003273
v -0.846879 -0.595229 -0.003273
v -0.722516 -0.746765 -0.003273
v -0.570979 -0.871128 -0.003273
v -0.398092 -0.963538 -0.003273
v -0.210499 -1.020444 -0.003273
v -0.206751 -1.020444 0.034788
v -0.390739 -0.963538 0.071385
v -0.560304 -0.871128 0.105114
v -0.708929 -0.746765 0.134677
v -0.830902 -0.595229 0.158939
v -0.921536 -0.422342 0.176967
v -0.977349 -0.234749 0.188069
v -0.996194 -0.039659 0.191818
v -0.977349 0.155432 0.188069
v -0.921536 0.343025 0.176967
v -0.830902 0.515912 0.158939
v -0.708929 0.667448 0.134677
v -0.560304 0.791811 0.105114
v -0.390739 0.884221 0.071385
v -0.206751 0.941127 0.034788
v -0.195649 0.941127 0.071385
v -0.368962 0.884221 0.143174
v -0.528689 0.791811 0.209335
v -0.668691 0.667448 0.267325
v -0.783587 0.515912 0.314917
v -0.868962 0.343025 0.350281
v -0.921536 0.155432 0.372058
v -0.939288 -0.039659 0.379411
v -0.921536 -0.234749 0.372058
v -0.868962 -0.422342 0.350281
v -0.783587 -0.595229 0.314917
v -0.668691 -0.746765 0.267325
v -0.528689 -0.871128 0.209335
v -0.368962 -0.963538 0.143174
v -0.195649 -1.020444 0.071385
v -0.177621 -1.020444 0.105114
v -0.333599 -0.963538 0.209335
v -0.477349 -0.871128 0.305385
v -0.603347 -0.746765 0.389575
v -0.706751 -0.595229 0.458667
v -0.783587 -0.422342 0.510007
v -0.830902 -0.234749 0.541622
v -0.846878 -0.039659 0.552297
v -0.830902 0.155432 0.541622
v -0.783587 0.343025 0.510007
v -0.706751 0.515912 0.458667
v -0.603347 0.667448 0.389575
v -0.477349 0.791811 0.305385
v -0.333599 0.884221 0.209335
v -0.177621 0.941127 0.105114
v -0.153359 0.941127 0.134677
v -0.286007 0.884221 0.267325
v -0.408256 0.791811 0.389575
v -0.515409 0.667448 0.496727
v -0.603347 0.515912 0.584665
v -0.668690 0.343025 0.650009
v -0.708929 0.155432 0.690247
v -0.722515 -0.039659 0.703834
v -0.708929 -0.234749 0.690247
v -0.668690 -0.422342 0.650009
v -0.603347 -0.595229 0.584665
v -0.515409 -0.746765 0.496727
v -0.408256 -0.871128 0.389575
v -0.286007 -0.963538 0.267325
v -0.153359 -1.020444 0.134677
v -0.123795 -1.020444 0.158939
v -0.228017 -0.963538 0.314917
v -0.324067 -0.871128 0.458667
v -0.408257 -0.746765 0.584665
v -0.477349 -0.595229 0.688069
v -0.528689 -0.422342 0.764905
v -0.560304 -0.234749 0.812220
v -0.570979 -0.039659 0.828196
v -0.560304 0.155432 0.812220
v -0.528689 0.343025 0.764905
v -0.477349 0.515912 0.688069
v -0.408257 0.667448 0.584665
v -0.324067 0.791811 0.458667
v -0.228017 0.884221 0.314917
v -0.123795 0.941127 0.158939
v -0.090067 0.941127 0.176967
v -0.161856 0.884221 0.350281
v -0.228016 0.791811 0.510007
v -0.286007 0.667448 0.650009
v -0.333598 0.515912 0.764905
v -0.368962 0.343025 0.850281
v -0.390739 0.155432 0.902854
v -0.398092 -0.039659 0.920606
v -0.390739 -0.234749 0.902854
v -0.368962 -0.422342 0.850281
v -0.333599 -0.595229 0.764905
v -0.286007 -0.746765 0.650009
v -0.228017 -0.871128 0.510007
v -0.161856 -0.963538 0.350280
v -0.090067 -1.020444 0.176967
v -0.053469 -1.020444 0.188069
v -0.090067 -0.963538 0.372057
v -0.123795 -0.871128 0.541622
v -0.153359 -0.746765 0.690247
v -0.177621 -0.595229 0.812220
v -0.195649 -0.422342 0.902855
v -0.206751 -0.234749 0.958667
v -0.210499 -0.039659 0.977512
v -0.206751 0.155432 0.958667
v -0.195649 0.343025 0.902855
v -0.177621 0.515912 0.812220
v -0.153359 0.667448 0.690247
v -0.123795 0.791811 0.541622
v -0.090067 0.884221 0.372057
v -0.053469 0.941127 0.188069
v -0.015409 0.941127 0.191817
v -0.015409 0.884221 0.379411
v -0.015409 0.791811 0.552297
v -0.015409 0.667448 0.703834
v -0.015409 0.515912 0.828196
v -0.015409 0.343025 0.920607
v -0.015409 0.155432 0.977512
v -0.015409 -0.039659 0.996726
v -0.015409 -0.234749 0.977512
v -0.015409 -0.422342 0.920607
v -0.015409 -0.595229 0.828196
v -0.015409 -0.746765 0.703834
v -0.015409 -0.871128 0.552297
v -0.015409 -0.963538 0.379411
v -0.015409 -1.020444 0.191817
v 0.022651 -1.020444 0.188069
v 0.059249 -0.963538 0.372057
v 0.092977 -0.871128 0.541622
v 0.122541 -0.746765 0.690247
v 0.146803 -0.595229 0.812220
v 0.164831 -0.422342 0.902854
v 0.175933 -0.234749 0.958667
v 0.179681 -0.039659 0.977512
v 0.175933 0.155432 0.958667
v 0.164831 0.343025 0.902854
v 0.146803 0.515912 0.812220
v 0.122541 0.667448 0.690247
v 0.092977 0.791811 0.541622
v 0.059249 0.884221 0.372057
v 0.022651 0.941127 0.188069
v 0.059249 0.941127 0.176967
v 0.131037 0.884221 0.350281
v 0.197198 0.791811 0.510007
v 0.255189 0.667448 0.650009
v 0.302780 0.515912 0.764904
v 0.338144 0.343025 0.850280
v 0.359921 0.155432 0.902854
v 0.367274 -0.039659 0.920606
v 0.359921 -0.234749 0.902854
v 0.338144 -0.422342 0.850280
v 0.302780 -0.595229 0.764905
v 0.255189 -0.746765 0.650009
v 0.197198 -0.871128 0.510007
v 0.131037 -0.963538 0.350280
v 0.059249 -1.020444 0.176967
v 0.092977 -1.020444 0.158939
v 0.197198 -0.963538 0.314917
v 0.293249 -0.871128 0.458667
v 0.377438 -0.746765 0.584665
v 0.446530 -0.595229 0.688069
v 0.497871 -0.422342 0.764905
v 0.529486 -0.234749 0.812220
v 0.540161 -0.039659 0.828196
v 0.529486 0.155432 0.812220
v 0.497871 0.343025 0.764905
v 0.446530 0.515912 0.688068
v 0.377438 0.667448 0.584665
v 0.293249 0.791811 0.458667
v 0.197198 0.884221 0.314917
v 0.092977 0.941127 0.158939
v 0.122540 0.941127 0.134677
v 0.255189 0.884221 0.267325
v 0.377438 0.791811 0.389574
v 0.484591 0.667448 0.496727
v 0.572528 0.515912 0.584665
v 0.637872 0.343025 0.650008
v 0.678111 0.155432 0.690247
v 0.691697 -0.039659 0.703833
v 0.678111 -0.234749 0.690247
v 0.637872 -0.422342 0.650008
v 0.572528 -0.595229 0.584665
v 0.484591 -0.746765 0.496727
v 0.377438 -0.871128 0.389574
v 0.255189 -0.963538 0.267325
v 0.122540 -1.020444 0.134677
v 0.146802 -1.020444 0.105113
v 0.302780 -0.963538 0.209335
v 0.446530 -0.871128 0.305385
v 0.572528 -0.746765 0.389575
v 0.675932 -0.595229 0.458667
v 0.752768 -0.422342 0.510007
v 0.800084 -0.234749 0.541622
v 0.816060 -0.039659 0.552297
v 0.800084 0.155432 0.541622
v 0.752768 0.343025 0.510007
v 0.675932 0.515912 0.458667
v 0.572528 0.667448 0.389575
v 0.446530 0.791811 0.305385
v 0.302780 0.884221 0.209335
v 0.146802 0.941127 0.105114
v 0.164831 0.941127 0.071385
v 0.338144 0.884221 0.143174
v 0.497870 0.791811 0.209334
v 0.637872 0.667448 0.267325
v 0.752768 0.515912 0.314916
v 0.838144 0.343025 0.350280
v 0.890718 0.155432 0.372057
v 0.908469 -0.039659 0.379410
v 0.890718 -0.234749 0.372057
v 0.838144 -0.422342 0.350280
v 0.752768 -0.595229 0.314917
v 0.637872 -0.746765 0.267325
v 0.497870 -0.871128 0.209335
v 0.338144 -0.963538 0.143174
v 0.164831 -1.020444 0.071385
v 0.175932 -1.020444 0.034787
v 0.359921 -0.963538 0.071385
v 0.529486 -0.871128 0.105113
v 0.678111 -0.746765 0.134677
v 0.800084 -0.595229 0.158939
v 0.890718 -0.422342 0.176967
v 0.946530 -0.234749 0.188069
v 0.965375 -0.039659 0.191817
v 0.946530 0.155432 0.188069
v 0.890718 0.343025 0.176967
v 0.800083 0.515912 0.158939
v 0.678111 0.667448 0.134677
v 0.529485 0.791811 0.105113
v 0.359921 0.884221 0.071385
v 0.175932 0.941127 0.034787
g Mesh_Sphere1_(null)
usemtl (null)
s off
f 483 484 485
f 486 483 485 487
f 488 486 487 489
f 490 488 489 491
f 492 490 491 493
f 494 492 493 495
f 496 494 495 497
f 498 496 497 499
f 500 498 499 501
f 502 500 501 503
f 504 502 503 505
f 506 504 505 507
f 508 506 507 509
f 510 508 509 511
f 512 510 511 513
f 514 512 513
f 514 513 515
f 513 511 516 515
f 511 509 517 516
f 509 507 518 517
f 507 505 519 518
f 505 503 520 519
f 503 501 521 520
f 501 499 522 521
f 499 497 523 522
f 497 495 524 523
f 495 493 525 524
f 493 491 526 525
f 491 489 527 526
f 489 487 528 527
f 487 485 529 528
f 485 484 529
f 529 484 530
f 528 529 530 531
f 527 528 531 532
f 526 527 532 533
f 525 526 533 534
f 524 525 534 535
f 523 524 535 536
f 522 523 536 537
f 521 522 537 538
f 520 521 538 539
f 519 520 539 540
f 518 519 540 541
f 517 518 541 542
f 516 517 542 543
f 515 516 543 544
f 514 515 544
f 514 544 545
f 544 543 546 545
f 543 542 547 546
f 542 541 548 547
f 541 540 549 548
f 540 539 550 549
f 539 538 551 550
f 538 537 552 551
f 537 536 553 552
f 536 535 554 553
f 535 534 555 554
f 534 533 556 555
f 533 532 557 556
f 532 531 558 557
f 531 530 559 558
f 530 484 559
f 559 484 560
f 558 559 560 561
f 557 558 561 562
f 556 557 562 563
f 555 556 563 564
f 554 555 564 565
f 553 554 565 566
f 552 553 566 567
f 551 552 567 568
f 550 551 568 569
f 549 550 569 570
f 548 549 570 571
f 547 548 571 572
f 546 547 572 573
f 545 546 573 574
f 514 545 574
f 514 574 575
f 574 573 576 575
f 573 572 577 576
f 572 571 578 577
f 571 570 579 578
f 570 569 580 579
f 569 568 581 580
f 568 567 582 581
f 567 566 583 582
f 566 565 584 583
f 565 564 585 584
f 564 563 586 585
f 563 562 587 586
f 562 561 588 587
f 561 560 589 588
f 560 484 589
f 589 484 590
f 588 589 590 591
f 587 588 591 592
f 586 587 592 593
f 585 586 593 594
f 584 585 594 595
f 583 584 595 596
f 582 583 596 597
f 581 582 597 598
f 580 581 598 599
f 579 580 599 600
f 578 579 600 601
f 577 578 601 602
f 576 577 602 603
f 575 576 603 604
f 514 575 604
f 514 604 605
f 604 603 606 605
f 603 602 607 606
f 602 601 608 607
f 601 600 609 608
f 600 599 610 609
f 599 598 611 610
f 598 597 612 611
f 597 596 613 612
f 596 595 614 613
f 595 594 615 614
f 594 593 616 615
f 593 592 617 616
f 592 591 618 617
f 591 590 619 618
f 590 484 619
f 619 484 620
f 618 619 620 621
f 617 618 621 622
f 616 617 622 623
f 615 616 623 624
f 614 615 624 625
f 613 614 625 626
f 612 613 626 627
f 611 612 627 628
f 610 611 628 629
f 609 610 629 630
f 608 609 630 631
f 607 608 631 632
f 606 607 632 633
f 605 606 633 634
f 514 605 634
f 514 634 635
f 634 633 636 635
f 633 632 637 636
f 632 631 638 637
f 631 630 639 638
f 630 629 640 639
f 629 628 641 640
f 628 627 642 641
f 627 626 643 642
f 626 625 644 643
f 625 624 645 644
f 624 623 646 645
f 623 622 647 646
f 622 621 648 647
f 621 620 649 648
f 620 484 649
f 649 484 650
f 648 649 650 651
f 647 648 651 652
f 646 647 652 653
f 645 646 653 654
f 644 645 654 655
f 643 644 655 656
f 642 643 656 657
f 641 642 657 658
f 640 641 658 659
f 639 640 659 660
f 638 639 660 661
f 637 638 661 662
f 636 637 662 663
f 635 636 663 664
f 514 635 664
f 514 664 665
f 664 663 666 665
f 663 662 667 666
f 662 661 668 667
f 661 660 669 668
f 660 659 670 669
f 659 658 671 670
f 658 657 672 671
f 657 656 673 672
f 656 655 674 673
f 655 654 675 674
f 654 653 676 675
f 653 652 677 676
f 652 651 678 677
f 651 650 679 678
f 650 484 679
f 679 484 680
f 678 679 680 681
f 677 678 681 682
f 676 677 682 683
f 675 676 683 684
f 674 675 684 685
f 673 674 685 686
f 672 673 686 687
f 671 672 687 688
f 670 671 688 689
f 669 670 689 690
f 668 669 690 691
f 667 668 691 692
f 666 667 692 693
f 665 666 693 694
f 514 665 694
f 514 694 695
f 694 693 696 695
f 693 692 697 696
f 692 691 698 697
f 691 690 699 698
f 690 689 700 699
f 689 688 701 700
f 688 687 702 701
f 687 686 703 702
f 686 685 704 703
f 685 684 705 704
f 684 683 706 705
f 683 682 707 706
f 682 681 708 707
f 681 680 709 708
f 680 484 709
f 709 484 710
f 708 709 710 711
f 707 708 711 712
f 706 707 712 713
f 705 706 713 714
f 704 705 714 715
f 703 704 715 716
f 702 703 716 717
f 701 702 717 718
f 700 701 718 719
f 699 700 719 720
f 698 699 720 721
f 697 698 721 722
f 696 697 722 723
f 695 696 723 724
f 514 695 724
f 514 724 725
f 724 723 726 725
f 723 722 727 726
f 722 721 728 727
f 721 720 729 728
f 720 719 730 729
f 719 718 731 730
f 718 717 732 731
f 717 716 733 732
f 716 715 734 733
f 715 714 735 734
f 714 713 736 735
f 713 712 737 736
f 712 711 738 737
f 711 710 739 738
f 710 484 739
f 739 484 740
f 738 739 740 741
f 737 738 741 742
f 736 737 742 743
f 735 736 743 744
f 734 735 744 745
f 733 734 745 746
f 732 733 746 747
f 731 732 747 748
f 730 731 748 749
f 729 730 749 750
f 728 729 750 751
f 727 728 751 752
f 726 727 752 753
f 725 726 753 754
f 514 725 754
f 514 754 755
f 754 753 756 755
f 753 752 757 756
f 752 751 758 757
f 751 750 759 758
f 750 749 760 759
f 749 748 761 760
f 748 747 762 761
f 747 746 763 762
f 746 745 764 763
f 745 744 765 764
f 744 743 766 765
f 743 742 767 766
f 742 741 768 767
f 741 740 769 768
f 740 484 769
f 769 484 770
f 768 769 770 771
f 767 768 771 772
f 766 767 772 773
f 765 766 773 774
f 764 765 774 775
f 763 764 775 776
f 762 763 776 777
f 761 762 777 778
f 760 761 778 779
f 759 760 779 780
f 758 759 780 781
f 757 758 781 782
f 756 757 782 783
f 755 756 783 784
f 514 755 784
f 514 784 785
f 784 783 786 785
f 783 782 787 786
f 782 781 788 787
f 781 780 789 788
f 780 779 790 789
f 779 778 791 790
f 778 777 792 791
f 777 776 793 792
f 776 775 794 793
f 775 774 795 794
f 774 773 796 795
f 773 772 797 796
f 772 771 798 797
f 771 770 799 798
f 770 484 799
f 799 484 800
f 798 799 800 801
f 797 798 801 802
f 796 797 802 803
f 795 796 803 804
f 794 795 804 805
f 793 794 805 806
f 792 793 806 807
f 791 792 807 808
f 790 791 808 809
f 789 790 809 810
f 788 789 810 811
f 787 788 811 812
f 786 787 812 813
f 785 786 813 814
f 514 785 814
f 514 814 815
f 814 813 816 815
f 813 812 817 816
f 812 811 818 817
f 811 810 819 818
f 810 809 820 819
f 809 808 821 820
f 808 807 822 821
f 807 806 823 822
f 806 805 824 823
f 805 804 825 824
f 804 803 826 825
f 803 802 827 826
f 802 801 828 827
f 801 800 829 828
f 800 484 829
f 829 484 830
f 828 829 830 831
f 827 828 831 832
f 826 827 832 833
f 825 826 833 834
f 824 825 834 835
f 823 824 835 836
f 822 823 836 837
f 821 822 837 838
f 820 821 838 839
f 819 820 839 840
f 818 819 840 841
f 817 818 841 842
f 816 817 842 843
f 815 816 843 844
f 514 815 844
f 514 844 845
f 844 843 846 845
f 843 842 847 846
f 842 841 848 847
f 841 840 849 848
f 840 839 850 849
f 839 838 851 850
f 838 837 852 851
f 837 836 853 852
f 836 835 854 853
f 835 834 855 854
f 834 833 856 855
f 833 832 857 856
f 832 831 858 857
f 831 830 859 858
f 830 484 859
f 859 484 860
f 858 859 860 861
f 857 858 861 862
f 856 857 862 863
f 855 856 863 864
f 854 855 864 865
f 853 854 865 866
f 852 853 866 867
f 851 852 867 868
f 850 851 868 869
f 849 850 869 870
f 848 849 870 871
f 847 848 871 872
f 846 847 872 873
f 845 846 873 874
f 514 845 874
f 514 874 875
f 874 873 876 875
f 873 872 877 876
f 872 871 878 877
f 871 870 879 878
f 870 869 880 879
f 869 868 881 880
f 868 867 882 881
f 867 866 883 882
f 866 865 884 883
f 865 864 885 884
f 864 863 886 885
f 863 862 887 886
f 862 861 888 887
f 861 860 889 888
f 860 484 889
f 889 484 890
f 888 889 890 891
f 887 888 891 892
f 886 887 892 893
f 885 886 893 894
f 884 885 894 895
f 883 884 895 896
f 882 883 896 897
f 881 882 897 898
f 880 881 898 899
f 879 880 899 900
f 878 879 900 901
f 877 878 901 902
f 876 877 902 903
f 875 876 903 904
f 514 875 904
f 514 904 905
f 904 903 906 905
f 903 902 907 906
f 902 901 908 907
f 901 900 909 908
f 900 899 910 909
f 899 898 911 910
f 898 897 912 911
f 897 896 913 912
f 896 895 914 913
f 895 894 915 914
f 894 893 916 915
f 893 892 917 916
f 892 891 918 917
f 891 890 919 918
f 890 484 919
f 919 484 920
f 918 919 920 921
f 917 918 921 922
f 916 917 922 923
f 915 916 923 924
f 914 915 924 925
f 913 914 925 926
f 912 913 926 927
f 911 912 927 928
f 910 911 928 929
f 909 910 929 930
f 908 909 930 931
f 907 908 931 932
f 906 907 932 933
f 905 906 933 934
f 514 905 934
f 514 934 935
f 934 933 936 935
f 933 932 937 936
f 932 931 938 937
f 931 930 939 938
f 930 929 940 939
f 929 928 941 940
f 928 927 942 941
f 927 926 943 942
f 926 925 944 943
f 925 924 945 944
f 924 923 946 945
f 923 922 947 946
f 922 921 948 947
f 921 920 949 948
f 920 484 949
f 949 484 950
f 948 949 950 951
f 947 948 951 952
f 946 947 952 953
f 945 946 953 954
f 944 945 954 955
f 943 944 955 956
f 942 943 956 957
f 941 942 957 958
f 940 941 958 959
f 939 940 959 960
f 938 939 960 961
f 937 938 961 962
f 936 937 962 963
f 935 936 963 964
f 514 935 964
f 514 964 512
f 964 963 510 512
f 963 962 508 510
f 962 961 506 508
f 961 960 504 506
f 960 959 502 504
f 959 958 500 502
f 958 957 498 500
f 957 956 496 498
f 956 955 494 496
f 955 954 492 494
f 954 953 490 492
f 953 952 488 490
f 952 951 486 488
f 483 486 951 950
f 484 483 950
